INFO     planner time limit: None
INFO     planner memory limit: None

INFO     Running translator.
INFO     translator stdin: None
INFO     translator time limit: None
INFO     translator memory limit: None
INFO     translator command line string: /usr/bin/python3 /home/prof/ribas/downward/builds/release/bin/translate/translate.py without_version/domain.pddl experiments/problems/problem4.pddl --sas-file output.sas
Parsing...
Parsing: [0.010s CPU, 0.004s wall-clock]
Normalizing task... [0.000s CPU, 0.000s wall-clock]
Instantiating...
Generating Datalog program... [0.000s CPU, 0.001s wall-clock]
Normalizing Datalog program...
Normalizing Datalog program: [0.000s CPU, 0.001s wall-clock]
Preparing model... [0.010s CPU, 0.002s wall-clock]
Generated 6 rules.
Computing model... [0.000s CPU, 0.006s wall-clock]
965 relevant atoms
90 auxiliary atoms
1055 final queue length
1076 total queue pushes
Completing instantiation... [0.010s CPU, 0.003s wall-clock]
Instantiating: [0.020s CPU, 0.013s wall-clock]
Computing fact groups...
Finding invariants...
2 initial candidates
Finding invariants: [0.000s CPU, 0.000s wall-clock]
Checking invariant weight... [0.000s CPU, 0.000s wall-clock]
Instantiating groups... [0.000s CPU, 0.000s wall-clock]
Collecting mutex groups... [0.000s CPU, 0.000s wall-clock]
Choosing groups...
212 uncovered facts
Choosing groups: [0.000s CPU, 0.000s wall-clock]
Building translation key... [0.000s CPU, 0.001s wall-clock]
Computing fact groups: [0.000s CPU, 0.002s wall-clock]
Building STRIPS to SAS dictionary... [0.000s CPU, 0.000s wall-clock]
Building dictionary for full mutex groups... [0.000s CPU, 0.000s wall-clock]
Building mutex information...
Building mutex information: [0.000s CPU, 0.000s wall-clock]
Translating task...
Processing axioms...
Simplifying axioms... [0.000s CPU, 0.000s wall-clock]
Translator axioms removed by simplifying: 0
Computing negative axioms... [0.000s CPU, 0.001s wall-clock]
Processing axioms: [0.000s CPU, 0.002s wall-clock]
Translating task: [0.000s CPU, 0.007s wall-clock]
0 effect conditions simplified
0 implied preconditions added
Detecting unreachable propositions...
0 operators removed
0 axioms removed
0 propositions removed
Detecting unreachable propositions: [0.010s CPU, 0.003s wall-clock]
Reordering and filtering variables...
27 of 212 variables necessary.
0 of 0 mutex groups necessary.
18 of 143 operators necessary.
18 of 159 axiom rules necessary.
Reordering and filtering variables: [0.000s CPU, 0.001s wall-clock]
Translator variables: 27
Translator derived variables: 9
Translator facts: 54
Translator goal facts: 10
Translator mutex groups: 0
Translator total mutex groups size: 0
Translator operators: 18
Translator axioms: 18
Translator task size: 190
Translator peak memory: 32780 KB
Writing output... [0.000s CPU, 0.006s wall-clock]
Done! [0.040s CPU, 0.037s wall-clock]
translate exit code: 0

INFO     Running search (release).
INFO     search stdin: output.sas
INFO     search time limit: None
INFO     search memory limit: None
INFO     search command line string: /home/prof/ribas/downward/builds/release/bin/downward --if-unit-cost --evaluator 'hlm=lmcount(lm_reasonable_orders_hps(lm_rhw()),pref=true)' --evaluator 'hff=ff()' --search 'iterated([lazy_greedy([hff,hlm],preferred=[hff,hlm]),lazy_wastar([hff,hlm],preferred=[hff,hlm],w=5),lazy_wastar([hff,hlm],preferred=[hff,hlm],w=3),lazy_wastar([hff,hlm],preferred=[hff,hlm],w=2),lazy_wastar([hff,hlm],preferred=[hff,hlm],w=1)],repeat_last=true,continue_on_fail=true)' --if-non-unit-cost --evaluator 'hlm1=lmcount(lm_reasonable_orders_hps(lm_rhw()),transform=adapt_costs(one),pref=true)' --evaluator 'hff1=ff(transform=adapt_costs(one))' --evaluator 'hlm2=lmcount(lm_reasonable_orders_hps(lm_rhw()),transform=adapt_costs(plusone),pref=true)' --evaluator 'hff2=ff(transform=adapt_costs(plusone))' --search 'iterated([lazy_greedy([hff1,hlm1],preferred=[hff1,hlm1],cost_type=one,reopen_closed=false),lazy_greedy([hff2,hlm2],preferred=[hff2,hlm2],reopen_closed=false),lazy_wastar([hff2,hlm2],preferred=[hff2,hlm2],w=5),lazy_wastar([hff2,hlm2],preferred=[hff2,hlm2],w=3),lazy_wastar([hff2,hlm2],preferred=[hff2,hlm2],w=2),lazy_wastar([hff2,hlm2],preferred=[hff2,hlm2],w=1)],repeat_last=true,continue_on_fail=true)' --always --internal-plan-file sas_plan < output.sas
[t=0.000134673s, 9872 KB] reading input...
[t=0.000626204s, 9872 KB] done reading input!
[t=0.00333209s, 10268 KB] Initializing landmark count heuristic...
[t=0.00340119s, 10268 KB] Generating landmark graph...
[t=0.00344766s, 10268 KB] Building a landmark graph with reasonable orders.
[t=0.00348941s, 10268 KB] Initializing Exploration...
[t=0.00355129s, 10268 KB] Generating landmarks using the RPG/SAS+ approach
[t=0.00441749s, 10268 KB] Removed 0 reasonable or obedient reasonable orders
[t=0.00447662s, 10268 KB] Landmarks generation time: 0.0010288s
[t=0.00451665s, 10268 KB] Discovered 54 landmarks, of which 0 are disjunctive and 0 are conjunctive.
[t=0.00454816s, 10268 KB] 74 edges
[t=0.00457865s, 10268 KB] approx. reasonable orders
[t=0.00474069s, 10268 KB] approx. obedient reasonable orders
[t=0.0048045s, 10268 KB] Removed 0 reasonable or obedient reasonable orders
[t=0.00483922s, 10268 KB] Landmarks generation time: 0.00142949s
[t=0.00487293s, 10268 KB] Discovered 54 landmarks, of which 0 are disjunctive and 0 are conjunctive.
[t=0.00490272s, 10268 KB] 74 edges
[t=0.00493182s, 10268 KB] Landmark graph generation time: 0.00155839s
[t=0.0049631s, 10268 KB] Landmark graph contains 54 landmarks, of which 0 are disjunctive and 0 are conjunctive.
[t=0.00499251s, 10268 KB] Landmark graph contains 74 orderings.
[t=0.00512158s, 10268 KB] Simplifying 36 unary operators... done! [36 unary operators]
[t=0.00520337s, 10268 KB] time to simplify: 0.00011732s
[t=0.00525308s, 10268 KB] Initializing additive heuristic...
[t=0.00528528s, 10268 KB] Initializing FF heuristic...
[t=0.00547553s, 10268 KB] Building successor generator...done!
[t=0.00560208s, 10268 KB] peak memory difference for successor generator creation: 0 KB
[t=0.00563249s, 10268 KB] time for successor generation creation: 2.4295e-05s
[t=0.00566658s, 10268 KB] Variables: 27
[t=0.00569688s, 10268 KB] FactPairs: 54
[t=0.00572604s, 10268 KB] Bytes per state: 4
[t=0.0063179s, 10532 KB] Building successor generator...done!
[t=0.00648166s, 10532 KB] peak memory difference for successor generator creation: 0 KB
[t=0.00651151s, 10532 KB] time for successor generation creation: 1.042e-06s
[t=0.00654456s, 10532 KB] Variables: 27
[t=0.00657516s, 10532 KB] FactPairs: 54
[t=0.00660484s, 10532 KB] Bytes per state: 4
[t=0.00666331s, 10532 KB] Starting search: lazy_greedy(list(hff, hlm), preferred = list(hff, hlm))
[t=0.00670506s, 10532 KB] Conducting lazy best first search, (real) bound = 2147483647
[t=0.00674632s, 10664 KB] 27 initial landmarks, 10 goal landmarks
[t=0.00685048s, 10664 KB] New best heuristic value for lmcount(lm_reasonable_orders_hps(lm_rhw), pref = true): 27
[t=0.00689613s, 10664 KB] New best heuristic value for ff: 18
[t=0.00693081s, 10664 KB] g=0, 1 evaluated, 0 expanded
[t=0.00697952s, 10664 KB] Initial heuristic value for lmcount(lm_reasonable_orders_hps(lm_rhw), pref = true): 27
[t=0.00701194s, 10664 KB] Initial heuristic value for ff: 18
[t=0.00707585s, 10664 KB] New best heuristic value for lmcount(lm_reasonable_orders_hps(lm_rhw), pref = true): 26
[t=0.00711306s, 10664 KB] New best heuristic value for ff: 17
[t=0.00714289s, 10664 KB] g=1, 2 evaluated, 1 expanded
[t=0.00721734s, 10664 KB] New best heuristic value for ff: 16
[t=0.00725465s, 10664 KB] g=2, 3 evaluated, 2 expanded
[t=0.00732933s, 10664 KB] New best heuristic value for ff: 15
[t=0.00736668s, 10664 KB] g=3, 4 evaluated, 3 expanded
[t=0.00743629s, 10664 KB] New best heuristic value for lmcount(lm_reasonable_orders_hps(lm_rhw), pref = true): 25
[t=0.00747337s, 10664 KB] g=2, 5 evaluated, 4 expanded
[t=0.00754397s, 10664 KB] New best heuristic value for lmcount(lm_reasonable_orders_hps(lm_rhw), pref = true): 23
[t=0.00758083s, 10664 KB] New best heuristic value for ff: 14
[t=0.00761126s, 10664 KB] g=4, 6 evaluated, 5 expanded
[t=0.00768015s, 10664 KB] New best heuristic value for ff: 13
[t=0.00772469s, 10664 KB] g=5, 7 evaluated, 6 expanded
[t=0.00779519s, 10664 KB] New best heuristic value for lmcount(lm_reasonable_orders_hps(lm_rhw), pref = true): 20
[t=0.00783217s, 10664 KB] New best heuristic value for ff: 12
[t=0.0078622s, 10664 KB] g=6, 8 evaluated, 7 expanded
[t=0.00793158s, 10664 KB] New best heuristic value for ff: 11
[t=0.0079679s, 10664 KB] g=7, 9 evaluated, 8 expanded
[t=0.00803187s, 10664 KB] New best heuristic value for lmcount(lm_reasonable_orders_hps(lm_rhw), pref = true): 16
[t=0.00806837s, 10664 KB] New best heuristic value for ff: 10
[t=0.00809823s, 10664 KB] g=8, 10 evaluated, 9 expanded
[t=0.00816266s, 10664 KB] New best heuristic value for lmcount(lm_reasonable_orders_hps(lm_rhw), pref = true): 15
[t=0.00819931s, 10664 KB] New best heuristic value for ff: 9
[t=0.00822942s, 10664 KB] g=9, 11 evaluated, 10 expanded
[t=0.00829173s, 10664 KB] New best heuristic value for ff: 8
[t=0.00832748s, 10664 KB] g=10, 12 evaluated, 11 expanded
[t=0.00838912s, 10664 KB] New best heuristic value for ff: 7
[t=0.00842533s, 10664 KB] g=11, 13 evaluated, 12 expanded
[t=0.00851178s, 10664 KB] New best heuristic value for ff: 6
[t=0.00854946s, 10664 KB] g=12, 15 evaluated, 14 expanded
[t=0.00863719s, 10664 KB] New best heuristic value for ff: 5
[t=0.00867573s, 10664 KB] g=13, 17 evaluated, 16 expanded
[t=0.00873638s, 10664 KB] New best heuristic value for ff: 4
[t=0.00877283s, 10664 KB] g=14, 18 evaluated, 17 expanded
[t=0.00883163s, 10664 KB] New best heuristic value for lmcount(lm_reasonable_orders_hps(lm_rhw), pref = true): 13
[t=0.00886746s, 10664 KB] g=11, 19 evaluated, 18 expanded
[t=0.00892885s, 10664 KB] New best heuristic value for ff: 3
[t=0.00896594s, 10664 KB] g=15, 20 evaluated, 19 expanded
[t=0.00902597s, 10664 KB] New best heuristic value for lmcount(lm_reasonable_orders_hps(lm_rhw), pref = true): 11
[t=0.00906274s, 10664 KB] g=12, 21 evaluated, 20 expanded
[t=0.00912202s, 10664 KB] New best heuristic value for ff: 2
[t=0.00915822s, 10664 KB] g=16, 22 evaluated, 21 expanded
[t=0.00923862s, 10664 KB] New best heuristic value for lmcount(lm_reasonable_orders_hps(lm_rhw), pref = true): 3
[t=0.0092774s, 10664 KB] New best heuristic value for ff: 1
[t=0.00930786s, 10664 KB] g=17, 24 evaluated, 23 expanded
[t=0.00935287s, 10664 KB] Solution found!
[t=0.00938867s, 10664 KB] Actual search time: 0.00261628s
install package83 (1)
install package82 (1)
install package43 (1)
install package52 (1)
install package60 (1)
install package24 (1)
install package47 (1)
install package16 (1)
install package137 (1)
install package115 (1)
install package49 (1)
install package122 (1)
install package121 (1)
install package107 (1)
install package69 (1)
install package27 (1)
install package102 (1)
install package1 (1)
[t=0.0095815s, 10664 KB] Plan length: 18 step(s).
[t=0.0096007s, 10664 KB] Plan cost: 18
[t=0.00961332s, 10664 KB] Expanded 24 state(s).
[t=0.00962468s, 10664 KB] Reopened 0 state(s).
[t=0.00963577s, 10664 KB] Evaluated 25 state(s).
[t=0.00964691s, 10664 KB] Evaluations: 50
[t=0.00965798s, 10664 KB] Generated 103 state(s).
[t=0.00966906s, 10664 KB] Dead ends: 0 state(s).
[t=0.00968016s, 10664 KB] Number of registered states: 25
[t=0.00969139s, 10664 KB] Int hash set load factor: 25/32 = 0.78125
[t=0.00970309s, 10664 KB] Int hash set resizes: 5
[t=0.00971419s, 10664 KB] Best solution cost so far: 18
[t=0.00972542s, 10664 KB] Solution found - keep searching
[t=0.00978245s, 10664 KB] Building successor generator...done!
[t=0.00981969s, 10664 KB] peak memory difference for successor generator creation: 0 KB
[t=0.00983072s, 10664 KB] time for successor generation creation: 3.91e-07s
[t=0.00984305s, 10664 KB] Variables: 27
[t=0.00985444s, 10664 KB] FactPairs: 54
[t=0.0098655s, 10664 KB] Bytes per state: 4
[t=0.00988317s, 10664 KB] Starting search: lazy_wastar(list(hff, hlm), preferred = list(hff, hlm), w = 5)
[t=0.00989792s, 10664 KB] Conducting lazy best first search, (real) bound = 18
[t=0.00991272s, 10664 KB] 27 initial landmarks, 10 goal landmarks
[t=0.00993935s, 10664 KB] New best heuristic value for lmcount(lm_reasonable_orders_hps(lm_rhw), pref = true): 27
[t=0.009956s, 10664 KB] New best heuristic value for ff: 18
[t=0.00996844s, 10664 KB] g=0, 1 evaluated, 0 expanded
[t=0.00998765s, 10664 KB] Initial heuristic value for lmcount(lm_reasonable_orders_hps(lm_rhw), pref = true): 27
[t=0.00999974s, 10664 KB] Initial heuristic value for ff: 18
[t=0.0100239s, 10664 KB] New best heuristic value for lmcount(lm_reasonable_orders_hps(lm_rhw), pref = true): 26
[t=0.010038s, 10664 KB] New best heuristic value for ff: 17
[t=0.0100497s, 10664 KB] g=1, 2 evaluated, 1 expanded
[t=0.0100782s, 10664 KB] New best heuristic value for ff: 16
[t=0.0100924s, 10664 KB] g=2, 3 evaluated, 2 expanded
[t=0.010122s, 10664 KB] New best heuristic value for ff: 15
[t=0.0101366s, 10664 KB] g=3, 4 evaluated, 3 expanded
[t=0.0101645s, 10664 KB] New best heuristic value for lmcount(lm_reasonable_orders_hps(lm_rhw), pref = true): 25
[t=0.0101787s, 10664 KB] g=2, 5 evaluated, 4 expanded
[t=0.0102065s, 10664 KB] New best heuristic value for lmcount(lm_reasonable_orders_hps(lm_rhw), pref = true): 23
[t=0.0102209s, 10664 KB] New best heuristic value for ff: 14
[t=0.0102324s, 10664 KB] g=4, 6 evaluated, 5 expanded
[t=0.0102593s, 10664 KB] New best heuristic value for ff: 13
[t=0.0102735s, 10664 KB] g=5, 7 evaluated, 6 expanded
[t=0.0102997s, 10664 KB] New best heuristic value for lmcount(lm_reasonable_orders_hps(lm_rhw), pref = true): 20
[t=0.0103135s, 10664 KB] New best heuristic value for ff: 12
[t=0.0103248s, 10664 KB] g=6, 8 evaluated, 7 expanded
[t=0.0103515s, 10664 KB] New best heuristic value for ff: 11
[t=0.0103655s, 10664 KB] g=7, 9 evaluated, 8 expanded
[t=0.0103905s, 10664 KB] New best heuristic value for lmcount(lm_reasonable_orders_hps(lm_rhw), pref = true): 16
[t=0.0104047s, 10664 KB] New best heuristic value for ff: 10
[t=0.010416s, 10664 KB] g=8, 10 evaluated, 9 expanded
[t=0.0104406s, 10664 KB] New best heuristic value for lmcount(lm_reasonable_orders_hps(lm_rhw), pref = true): 15
[t=0.0104547s, 10664 KB] New best heuristic value for ff: 9
[t=0.0104662s, 10664 KB] g=9, 11 evaluated, 10 expanded
[t=0.0104907s, 10664 KB] New best heuristic value for ff: 8
[t=0.0105049s, 10664 KB] g=10, 12 evaluated, 11 expanded
[t=0.0105302s, 10664 KB] New best heuristic value for ff: 7
[t=0.0105448s, 10664 KB] g=11, 13 evaluated, 12 expanded
[t=0.0105795s, 10664 KB] New best heuristic value for ff: 6
[t=0.0105943s, 10664 KB] g=12, 15 evaluated, 14 expanded
[t=0.0106297s, 10664 KB] New best heuristic value for ff: 5
[t=0.0106446s, 10664 KB] g=13, 17 evaluated, 16 expanded
[t=0.0106685s, 10664 KB] New best heuristic value for ff: 4
[t=0.0106828s, 10664 KB] g=14, 18 evaluated, 17 expanded
[t=0.0107068s, 10664 KB] New best heuristic value for lmcount(lm_reasonable_orders_hps(lm_rhw), pref = true): 13
[t=0.0107211s, 10664 KB] g=11, 19 evaluated, 18 expanded
[t=0.0107457s, 10664 KB] New best heuristic value for ff: 3
[t=0.0107598s, 10664 KB] g=15, 20 evaluated, 19 expanded
[t=0.010784s, 10664 KB] New best heuristic value for lmcount(lm_reasonable_orders_hps(lm_rhw), pref = true): 11
[t=0.0107983s, 10664 KB] g=12, 21 evaluated, 20 expanded
[t=0.0108221s, 10664 KB] New best heuristic value for ff: 2
[t=0.0108363s, 10664 KB] g=16, 22 evaluated, 21 expanded
[t=0.0108695s, 10664 KB] New best heuristic value for lmcount(lm_reasonable_orders_hps(lm_rhw), pref = true): 3
[t=0.0108844s, 10664 KB] New best heuristic value for ff: 1
[t=0.0108957s, 10664 KB] g=17, 24 evaluated, 23 expanded
[t=0.244134s, 11580 KB] Completely explored state space -- no solution!
[t=0.244172s, 11580 KB] Actual search time: 0.23426s
[t=0.244188s, 11580 KB] Expanded 11519 state(s).
[t=0.244201s, 11580 KB] Reopened 0 state(s).
[t=0.244213s, 11580 KB] Evaluated 11519 state(s).
[t=0.244225s, 11580 KB] Evaluations: 23038
[t=0.244237s, 11580 KB] Generated 64896 state(s).
[t=0.244248s, 11580 KB] Dead ends: 0 state(s).
[t=0.24426s, 11580 KB] Number of registered states: 11519
[t=0.244271s, 11580 KB] Int hash set load factor: 11519/16384 = 0.703064
[t=0.244283s, 11580 KB] Int hash set resizes: 14
[t=0.244295s, 11580 KB] Best solution cost so far: 18
[t=0.244309s, 11580 KB] No solution found - keep searching
[t=0.24438s, 11580 KB] Building successor generator...done!
[t=0.24442s, 11580 KB] peak memory difference for successor generator creation: 0 KB
[t=0.244432s, 11580 KB] time for successor generation creation: 4.41e-07s
[t=0.244445s, 11580 KB] Variables: 27
[t=0.244456s, 11580 KB] FactPairs: 54
[t=0.244468s, 11580 KB] Bytes per state: 4
[t=0.244485s, 11580 KB] Starting search: lazy_wastar(list(hff, hlm), preferred = list(hff, hlm), w = 3)
[t=0.2445s, 11580 KB] Conducting lazy best first search, (real) bound = 18
[t=0.244515s, 11580 KB] 27 initial landmarks, 10 goal landmarks
[t=0.244542s, 11580 KB] New best heuristic value for lmcount(lm_reasonable_orders_hps(lm_rhw), pref = true): 27
[t=0.244556s, 11580 KB] New best heuristic value for ff: 18
[t=0.244568s, 11580 KB] g=0, 1 evaluated, 0 expanded
[t=0.244587s, 11580 KB] Initial heuristic value for lmcount(lm_reasonable_orders_hps(lm_rhw), pref = true): 27
[t=0.2446s, 11580 KB] Initial heuristic value for ff: 18
[t=0.244625s, 11580 KB] New best heuristic value for lmcount(lm_reasonable_orders_hps(lm_rhw), pref = true): 26
[t=0.244639s, 11580 KB] New best heuristic value for ff: 17
[t=0.244651s, 11580 KB] g=1, 2 evaluated, 1 expanded
[t=0.244681s, 11580 KB] New best heuristic value for ff: 16
[t=0.244696s, 11580 KB] g=2, 3 evaluated, 2 expanded
[t=0.244726s, 11580 KB] New best heuristic value for ff: 15
[t=0.244741s, 11580 KB] g=3, 4 evaluated, 3 expanded
[t=0.24477s, 11580 KB] New best heuristic value for lmcount(lm_reasonable_orders_hps(lm_rhw), pref = true): 25
[t=0.244785s, 11580 KB] g=2, 5 evaluated, 4 expanded
[t=0.244813s, 11580 KB] New best heuristic value for lmcount(lm_reasonable_orders_hps(lm_rhw), pref = true): 23
[t=0.244828s, 11580 KB] New best heuristic value for ff: 14
[t=0.244839s, 11580 KB] g=4, 6 evaluated, 5 expanded
[t=0.244868s, 11580 KB] New best heuristic value for ff: 13
[t=0.244882s, 11580 KB] g=5, 7 evaluated, 6 expanded
[t=0.24491s, 11580 KB] New best heuristic value for lmcount(lm_reasonable_orders_hps(lm_rhw), pref = true): 20
[t=0.244924s, 11580 KB] New best heuristic value for ff: 12
[t=0.244936s, 11580 KB] g=6, 8 evaluated, 7 expanded
[t=0.244965s, 11580 KB] New best heuristic value for ff: 11
[t=0.244979s, 11580 KB] g=7, 9 evaluated, 8 expanded
[t=0.245006s, 11580 KB] New best heuristic value for lmcount(lm_reasonable_orders_hps(lm_rhw), pref = true): 16
[t=0.245021s, 11580 KB] New best heuristic value for ff: 10
[t=0.245032s, 11580 KB] g=8, 10 evaluated, 9 expanded
[t=0.245058s, 11580 KB] New best heuristic value for lmcount(lm_reasonable_orders_hps(lm_rhw), pref = true): 15
[t=0.245073s, 11580 KB] New best heuristic value for ff: 9
[t=0.245085s, 11580 KB] g=9, 11 evaluated, 10 expanded
[t=0.24511s, 11580 KB] New best heuristic value for ff: 8
[t=0.245125s, 11580 KB] g=10, 12 evaluated, 11 expanded
[t=0.245151s, 11580 KB] New best heuristic value for ff: 7
[t=0.245166s, 11580 KB] g=11, 13 evaluated, 12 expanded
[t=0.245202s, 11580 KB] New best heuristic value for ff: 6
[t=0.245217s, 11580 KB] g=12, 15 evaluated, 14 expanded
[t=0.245254s, 11580 KB] New best heuristic value for ff: 5
[t=0.24527s, 11580 KB] g=13, 17 evaluated, 16 expanded
[t=0.245295s, 11580 KB] New best heuristic value for ff: 4
[t=0.245309s, 11580 KB] g=14, 18 evaluated, 17 expanded
[t=0.245334s, 11580 KB] New best heuristic value for lmcount(lm_reasonable_orders_hps(lm_rhw), pref = true): 13
[t=0.245349s, 11580 KB] g=11, 19 evaluated, 18 expanded
[t=0.245373s, 11580 KB] New best heuristic value for ff: 3
[t=0.245388s, 11580 KB] g=15, 20 evaluated, 19 expanded
[t=0.245412s, 11580 KB] New best heuristic value for lmcount(lm_reasonable_orders_hps(lm_rhw), pref = true): 11
[t=0.245427s, 11580 KB] g=12, 21 evaluated, 20 expanded
[t=0.245451s, 11580 KB] New best heuristic value for ff: 2
[t=0.245466s, 11580 KB] g=16, 22 evaluated, 21 expanded
[t=0.2455s, 11580 KB] New best heuristic value for lmcount(lm_reasonable_orders_hps(lm_rhw), pref = true): 3
[t=0.245515s, 11580 KB] New best heuristic value for ff: 1
[t=0.24553s, 11580 KB] g=17, 24 evaluated, 23 expanded
[t=0.481455s, 11580 KB] Completely explored state space -- no solution!
[t=0.481489s, 11580 KB] Actual search time: 0.236975s
[t=0.481505s, 11580 KB] Expanded 11519 state(s).
[t=0.481518s, 11580 KB] Reopened 0 state(s).
[t=0.48153s, 11580 KB] Evaluated 11519 state(s).
[t=0.481543s, 11580 KB] Evaluations: 23038
[t=0.481554s, 11580 KB] Generated 64896 state(s).
[t=0.481566s, 11580 KB] Dead ends: 0 state(s).
[t=0.481577s, 11580 KB] Number of registered states: 11519
[t=0.481589s, 11580 KB] Int hash set load factor: 11519/16384 = 0.703064
[t=0.481601s, 11580 KB] Int hash set resizes: 14
[t=0.481612s, 11580 KB] Best solution cost so far: 18
[t=0.481624s, 11580 KB] No solution found - keep searching
[t=0.481682s, 11580 KB] Building successor generator...done!
[t=0.48172s, 11580 KB] peak memory difference for successor generator creation: 0 KB
[t=0.481732s, 11580 KB] time for successor generation creation: 4.21e-07s
[t=0.481745s, 11580 KB] Variables: 27
[t=0.481756s, 11580 KB] FactPairs: 54
[t=0.481767s, 11580 KB] Bytes per state: 4
[t=0.481785s, 11580 KB] Starting search: lazy_wastar(list(hff, hlm), preferred = list(hff, hlm), w = 2)
[t=0.481801s, 11580 KB] Conducting lazy best first search, (real) bound = 18
[t=0.481816s, 11580 KB] 27 initial landmarks, 10 goal landmarks
[t=0.481843s, 11580 KB] New best heuristic value for lmcount(lm_reasonable_orders_hps(lm_rhw), pref = true): 27
[t=0.481858s, 11580 KB] New best heuristic value for ff: 18
[t=0.48187s, 11580 KB] g=0, 1 evaluated, 0 expanded
[t=0.481889s, 11580 KB] Initial heuristic value for lmcount(lm_reasonable_orders_hps(lm_rhw), pref = true): 27
[t=0.481901s, 11580 KB] Initial heuristic value for ff: 18
[t=0.481926s, 11580 KB] New best heuristic value for lmcount(lm_reasonable_orders_hps(lm_rhw), pref = true): 26
[t=0.481941s, 11580 KB] New best heuristic value for ff: 17
[t=0.481952s, 11580 KB] g=1, 2 evaluated, 1 expanded
[t=0.481982s, 11580 KB] New best heuristic value for ff: 16
[t=0.481997s, 11580 KB] g=2, 3 evaluated, 2 expanded
[t=0.482028s, 11580 KB] New best heuristic value for ff: 15
[t=0.482042s, 11580 KB] g=3, 4 evaluated, 3 expanded
[t=0.482071s, 11580 KB] New best heuristic value for lmcount(lm_reasonable_orders_hps(lm_rhw), pref = true): 25
[t=0.482086s, 11580 KB] g=2, 5 evaluated, 4 expanded
[t=0.482114s, 11580 KB] New best heuristic value for lmcount(lm_reasonable_orders_hps(lm_rhw), pref = true): 23
[t=0.482128s, 11580 KB] New best heuristic value for ff: 14
[t=0.48214s, 11580 KB] g=4, 6 evaluated, 5 expanded
[t=0.482168s, 11580 KB] New best heuristic value for ff: 13
[t=0.482183s, 11580 KB] g=5, 7 evaluated, 6 expanded
[t=0.48221s, 11580 KB] New best heuristic value for lmcount(lm_reasonable_orders_hps(lm_rhw), pref = true): 20
[t=0.482225s, 11580 KB] New best heuristic value for ff: 12
[t=0.482236s, 11580 KB] g=6, 8 evaluated, 7 expanded
[t=0.482265s, 11580 KB] New best heuristic value for ff: 11
[t=0.48228s, 11580 KB] g=7, 9 evaluated, 8 expanded
[t=0.482306s, 11580 KB] New best heuristic value for lmcount(lm_reasonable_orders_hps(lm_rhw), pref = true): 16
[t=0.482321s, 11580 KB] New best heuristic value for ff: 10
[t=0.482333s, 11580 KB] g=8, 10 evaluated, 9 expanded
[t=0.482359s, 11580 KB] New best heuristic value for lmcount(lm_reasonable_orders_hps(lm_rhw), pref = true): 15
[t=0.482373s, 11580 KB] New best heuristic value for ff: 9
[t=0.482385s, 11580 KB] g=9, 11 evaluated, 10 expanded
[t=0.48241s, 11580 KB] New best heuristic value for ff: 8
[t=0.482425s, 11580 KB] g=10, 12 evaluated, 11 expanded
[t=0.482451s, 11580 KB] New best heuristic value for ff: 7
[t=0.482466s, 11580 KB] g=11, 13 evaluated, 12 expanded
[t=0.482501s, 11580 KB] New best heuristic value for ff: 6
[t=0.482516s, 11580 KB] g=12, 15 evaluated, 14 expanded
[t=0.482553s, 11580 KB] New best heuristic value for ff: 5
[t=0.482569s, 11580 KB] g=13, 17 evaluated, 16 expanded
[t=0.482605s, 11580 KB] New best heuristic value for ff: 4
[t=0.48262s, 11580 KB] g=14, 19 evaluated, 18 expanded
[t=0.482656s, 11580 KB] New best heuristic value for ff: 3
[t=0.482674s, 11580 KB] g=15, 21 evaluated, 20 expanded
[t=0.482711s, 11580 KB] New best heuristic value for ff: 2
[t=0.482726s, 11580 KB] g=16, 23 evaluated, 22 expanded
[t=0.48275s, 11580 KB] New best heuristic value for lmcount(lm_reasonable_orders_hps(lm_rhw), pref = true): 3
[t=0.482765s, 11580 KB] New best heuristic value for ff: 1
[t=0.482776s, 11580 KB] g=17, 24 evaluated, 23 expanded
[t=0.717166s, 11580 KB] Completely explored state space -- no solution!
[t=0.717198s, 11580 KB] Actual search time: 0.235384s
[t=0.717214s, 11580 KB] Expanded 11519 state(s).
[t=0.717227s, 11580 KB] Reopened 0 state(s).
[t=0.71724s, 11580 KB] Evaluated 11519 state(s).
[t=0.717252s, 11580 KB] Evaluations: 23038
[t=0.717265s, 11580 KB] Generated 64896 state(s).
[t=0.717277s, 11580 KB] Dead ends: 0 state(s).
[t=0.717288s, 11580 KB] Number of registered states: 11519
[t=0.7173s, 11580 KB] Int hash set load factor: 11519/16384 = 0.703064
[t=0.717312s, 11580 KB] Int hash set resizes: 14
[t=0.717324s, 11580 KB] Best solution cost so far: 18
[t=0.717335s, 11580 KB] No solution found - keep searching
[t=0.717406s, 11580 KB] Building successor generator...done!
[t=0.717446s, 11580 KB] peak memory difference for successor generator creation: 0 KB
[t=0.717458s, 11580 KB] time for successor generation creation: 4.51e-07s
[t=0.717471s, 11580 KB] Variables: 27
[t=0.717483s, 11580 KB] FactPairs: 54
[t=0.717495s, 11580 KB] Bytes per state: 4
[t=0.717513s, 11580 KB] Starting search: lazy_wastar(list(hff, hlm), preferred = list(hff, hlm), w = 1)
[t=0.717528s, 11580 KB] Conducting lazy best first search, (real) bound = 18
[t=0.717543s, 11580 KB] 27 initial landmarks, 10 goal landmarks
[t=0.717571s, 11580 KB] New best heuristic value for lmcount(lm_reasonable_orders_hps(lm_rhw), pref = true): 27
[t=0.717586s, 11580 KB] New best heuristic value for ff: 18
[t=0.717598s, 11580 KB] g=0, 1 evaluated, 0 expanded
[t=0.717617s, 11580 KB] Initial heuristic value for lmcount(lm_reasonable_orders_hps(lm_rhw), pref = true): 27
[t=0.71763s, 11580 KB] Initial heuristic value for ff: 18
[t=0.717655s, 11580 KB] New best heuristic value for lmcount(lm_reasonable_orders_hps(lm_rhw), pref = true): 26
[t=0.71767s, 11580 KB] New best heuristic value for ff: 17
[t=0.717683s, 11580 KB] g=1, 2 evaluated, 1 expanded
[t=0.717819s, 11580 KB] New best heuristic value for ff: 16
[t=0.717836s, 11580 KB] g=2, 11 evaluated, 10 expanded
[t=0.717865s, 11580 KB] New best heuristic value for lmcount(lm_reasonable_orders_hps(lm_rhw), pref = true): 25
[t=0.71788s, 11580 KB] g=2, 12 evaluated, 11 expanded
[t=0.718046s, 11580 KB] New best heuristic value for lmcount(lm_reasonable_orders_hps(lm_rhw), pref = true): 24
[t=0.718063s, 11580 KB] g=2, 24 evaluated, 23 expanded
[t=0.718092s, 11580 KB] New best heuristic value for lmcount(lm_reasonable_orders_hps(lm_rhw), pref = true): 23
[t=0.718107s, 11580 KB] New best heuristic value for ff: 15
[t=0.718119s, 11580 KB] g=3, 25 evaluated, 24 expanded
[t=0.718288s, 11580 KB] New best heuristic value for ff: 14
[t=0.718305s, 11580 KB] g=4, 37 evaluated, 36 expanded
[t=0.718344s, 11580 KB] New best heuristic value for lmcount(lm_reasonable_orders_hps(lm_rhw), pref = true): 22
[t=0.71836s, 11580 KB] g=4, 39 evaluated, 38 expanded
[t=0.71886s, 11580 KB] New best heuristic value for ff: 13
[t=0.718884s, 11580 KB] g=5, 79 evaluated, 78 expanded
[t=0.718928s, 11580 KB] New best heuristic value for lmcount(lm_reasonable_orders_hps(lm_rhw), pref = true): 21
[t=0.718944s, 11580 KB] g=5, 81 evaluated, 80 expanded
[t=0.719655s, 11580 KB] New best heuristic value for ff: 12
[t=0.719673s, 11580 KB] g=6, 139 evaluated, 138 expanded
[t=0.721237s, 11580 KB] New best heuristic value for lmcount(lm_reasonable_orders_hps(lm_rhw), pref = true): 20
[t=0.721256s, 11580 KB] g=6, 269 evaluated, 268 expanded
[t=0.721381s, 11580 KB] New best heuristic value for lmcount(lm_reasonable_orders_hps(lm_rhw), pref = true): 19
[t=0.721398s, 11580 KB] g=5, 278 evaluated, 277 expanded
[t=0.72154s, 11580 KB] New best heuristic value for lmcount(lm_reasonable_orders_hps(lm_rhw), pref = true): 18
[t=0.72156s, 11580 KB] g=6, 288 evaluated, 287 expanded
[t=0.721906s, 11580 KB] New best heuristic value for ff: 11
[t=0.721923s, 11580 KB] g=7, 315 evaluated, 314 expanded
[t=0.721964s, 11580 KB] New best heuristic value for lmcount(lm_reasonable_orders_hps(lm_rhw), pref = true): 17
[t=0.72198s, 11580 KB] g=7, 317 evaluated, 316 expanded
[t=0.722438s, 11580 KB] New best heuristic value for ff: 10
[t=0.722455s, 11580 KB] g=8, 355 evaluated, 354 expanded
[t=0.722482s, 11580 KB] New best heuristic value for lmcount(lm_reasonable_orders_hps(lm_rhw), pref = true): 16
[t=0.722497s, 11580 KB] g=8, 356 evaluated, 355 expanded
[t=0.722748s, 11580 KB] New best heuristic value for ff: 9
[t=0.722766s, 11580 KB] g=9, 377 evaluated, 376 expanded
[t=0.722884s, 11580 KB] New best heuristic value for lmcount(lm_reasonable_orders_hps(lm_rhw), pref = true): 15
[t=0.722902s, 11580 KB] g=7, 385 evaluated, 384 expanded
[t=0.722931s, 11580 KB] New best heuristic value for lmcount(lm_reasonable_orders_hps(lm_rhw), pref = true): 14
[t=0.722946s, 11580 KB] g=8, 386 evaluated, 385 expanded
[t=0.723058s, 11580 KB] New best heuristic value for lmcount(lm_reasonable_orders_hps(lm_rhw), pref = true): 13
[t=0.723075s, 11580 KB] g=9, 394 evaluated, 393 expanded
[t=0.723372s, 11580 KB] New best heuristic value for lmcount(lm_reasonable_orders_hps(lm_rhw), pref = true): 12
[t=0.72339s, 11580 KB] New best heuristic value for ff: 8
[t=0.723402s, 11580 KB] g=10, 418 evaluated, 417 expanded
[t=0.723762s, 11580 KB] New best heuristic value for lmcount(lm_reasonable_orders_hps(lm_rhw), pref = true): 11
[t=0.723779s, 11580 KB] New best heuristic value for ff: 7
[t=0.723792s, 11580 KB] g=11, 448 evaluated, 447 expanded
[t=0.723946s, 11580 KB] New best heuristic value for ff: 6
[t=0.723963s, 11580 KB] g=12, 461 evaluated, 460 expanded
[t=0.724077s, 11580 KB] New best heuristic value for lmcount(lm_reasonable_orders_hps(lm_rhw), pref = true): 10
[t=0.724093s, 11580 KB] g=10, 469 evaluated, 468 expanded
[t=0.724121s, 11580 KB] New best heuristic value for lmcount(lm_reasonable_orders_hps(lm_rhw), pref = true): 9
[t=0.724137s, 11580 KB] g=11, 470 evaluated, 469 expanded
[t=0.724237s, 11580 KB] New best heuristic value for lmcount(lm_reasonable_orders_hps(lm_rhw), pref = true): 8
[t=0.724253s, 11580 KB] g=11, 477 evaluated, 476 expanded
[t=0.724281s, 11580 KB] New best heuristic value for lmcount(lm_reasonable_orders_hps(lm_rhw), pref = true): 7
[t=0.724296s, 11580 KB] g=12, 478 evaluated, 477 expanded
[t=0.724382s, 11580 KB] New best heuristic value for lmcount(lm_reasonable_orders_hps(lm_rhw), pref = true): 6
[t=0.724398s, 11580 KB] New best heuristic value for ff: 5
[t=0.72441s, 11580 KB] g=13, 484 evaluated, 483 expanded
[t=0.724678s, 11580 KB] New best heuristic value for lmcount(lm_reasonable_orders_hps(lm_rhw), pref = true): 5
[t=0.724695s, 11580 KB] New best heuristic value for ff: 4
[t=0.724708s, 11580 KB] g=14, 505 evaluated, 504 expanded
[t=0.725156s, 11580 KB] New best heuristic value for lmcount(lm_reasonable_orders_hps(lm_rhw), pref = true): 4
[t=0.725174s, 11580 KB] New best heuristic value for ff: 3
[t=0.725186s, 11580 KB] g=15, 539 evaluated, 538 expanded
[t=0.725482s, 11580 KB] New best heuristic value for lmcount(lm_reasonable_orders_hps(lm_rhw), pref = true): 3
[t=0.725499s, 11580 KB] New best heuristic value for ff: 2
[t=0.725512s, 11580 KB] g=16, 564 evaluated, 563 expanded
[t=0.725598s, 11580 KB] New best heuristic value for ff: 1
[t=0.725614s, 11580 KB] g=17, 571 evaluated, 570 expanded
[t=0.743613s, 11580 KB] New best heuristic value for lmcount(lm_reasonable_orders_hps(lm_rhw), pref = true): 2
[t=0.743637s, 11580 KB] g=16, 2024 evaluated, 2023 expanded
[t=0.944177s, 11944 KB] Completely explored state space -- no solution!
[t=0.944209s, 11944 KB] Actual search time: 0.226666s
[t=0.944225s, 11944 KB] Expanded 11519 state(s).
[t=0.944238s, 11944 KB] Reopened 0 state(s).
[t=0.94425s, 11944 KB] Evaluated 11519 state(s).
[t=0.944262s, 11944 KB] Evaluations: 23038
[t=0.944274s, 11944 KB] Generated 64896 state(s).
[t=0.94429s, 11944 KB] Dead ends: 0 state(s).
[t=0.944303s, 11944 KB] Number of registered states: 11519
[t=0.944315s, 11944 KB] Int hash set load factor: 11519/16384 = 0.703064
[t=0.944327s, 11944 KB] Int hash set resizes: 14
[t=0.944338s, 11944 KB] Best solution cost so far: 18
[t=0.94435s, 11944 KB] No solution found - keep searching
[t=0.944368s, 11944 KB] Actual search time: 0.938148s
[t=0.944382s, 11944 KB] Cumulative statistics:
[t=0.944382s, 11944 KB] Expanded 46100 state(s).
[t=0.944382s, 11944 KB] Reopened 0 state(s).
[t=0.944382s, 11944 KB] Evaluated 46101 state(s).
[t=0.944382s, 11944 KB] Evaluations: 92202
[t=0.944382s, 11944 KB] Generated 259687 state(s).
[t=0.944382s, 11944 KB] Dead ends: 0 state(s).
[t=0.944382s, 11944 KB] Search time: 0.938151s
[t=0.944382s, 11944 KB] Total time: 0.944382s
Solution found.
Peak memory: 11944 KB
Remove intermediate file output.sas
search exit code: 0

INFO     Planner time: 1.04s
