INFO     planner time limit: None
INFO     planner memory limit: None

INFO     Running translator.
INFO     translator stdin: None
INFO     translator time limit: None
INFO     translator memory limit: None
INFO     translator command line string: /usr/bin/python3 /home/prof/ribas/downward/builds/release/bin/translate/translate.py without_version/domain.pddl experiments/problems/problem3.pddl --sas-file output.sas
Parsing...
Parsing: [0.010s CPU, 0.004s wall-clock]
Normalizing task... [0.000s CPU, 0.000s wall-clock]
Instantiating...
Generating Datalog program... [0.000s CPU, 0.002s wall-clock]
Normalizing Datalog program...
Normalizing Datalog program: [0.000s CPU, 0.001s wall-clock]
Preparing model... [0.010s CPU, 0.004s wall-clock]
Generated 6 rules.
Computing model... [0.010s CPU, 0.011s wall-clock]
2093 relevant atoms
167 auxiliary atoms
2260 final queue length
2299 total queue pushes
Completing instantiation... [0.000s CPU, 0.007s wall-clock]
Instantiating: [0.020s CPU, 0.025s wall-clock]
Computing fact groups...
Finding invariants...
2 initial candidates
Finding invariants: [0.000s CPU, 0.000s wall-clock]
Checking invariant weight... [0.000s CPU, 0.000s wall-clock]
Instantiating groups... [0.000s CPU, 0.000s wall-clock]
Collecting mutex groups... [0.000s CPU, 0.000s wall-clock]
Choosing groups...
454 uncovered facts
Choosing groups: [0.000s CPU, 0.000s wall-clock]
Building translation key... [0.000s CPU, 0.001s wall-clock]
Computing fact groups: [0.010s CPU, 0.004s wall-clock]
Building STRIPS to SAS dictionary... [0.000s CPU, 0.000s wall-clock]
Building dictionary for full mutex groups... [0.000s CPU, 0.000s wall-clock]
Building mutex information...
Building mutex information: [0.000s CPU, 0.000s wall-clock]
Translating task...
Processing axioms...
Simplifying axioms... [0.000s CPU, 0.001s wall-clock]
Translator axioms removed by simplifying: 0
Computing negative axioms... [0.000s CPU, 0.001s wall-clock]
Processing axioms: [0.000s CPU, 0.004s wall-clock]
Translating task: [0.010s CPU, 0.015s wall-clock]
0 effect conditions simplified
0 implied preconditions added
Detecting unreachable propositions...
0 operators removed
0 axioms removed
0 propositions removed
Detecting unreachable propositions: [0.010s CPU, 0.006s wall-clock]
Reordering and filtering variables...
14 of 454 variables necessary.
0 of 0 mutex groups necessary.
12 of 326 operators necessary.
4 of 295 axiom rules necessary.
Reordering and filtering variables: [0.000s CPU, 0.002s wall-clock]
Translator variables: 14
Translator derived variables: 2
Translator facts: 28
Translator goal facts: 10
Translator mutex groups: 0
Translator total mutex groups size: 0
Translator operators: 12
Translator axioms: 4
Translator task size: 98
Translator peak memory: 33804 KB
Writing output... [0.000s CPU, 0.005s wall-clock]
Done! [0.060s CPU, 0.062s wall-clock]
translate exit code: 0

INFO     Running search (release).
INFO     search stdin: output.sas
INFO     search time limit: None
INFO     search memory limit: None
INFO     search command line string: /home/prof/ribas/downward/builds/release/bin/downward --if-unit-cost --evaluator 'hlm=lmcount(lm_reasonable_orders_hps(lm_rhw()),pref=true)' --evaluator 'hff=ff()' --search 'iterated([lazy_greedy([hff,hlm],preferred=[hff,hlm]),lazy_wastar([hff,hlm],preferred=[hff,hlm],w=5),lazy_wastar([hff,hlm],preferred=[hff,hlm],w=3),lazy_wastar([hff,hlm],preferred=[hff,hlm],w=2),lazy_wastar([hff,hlm],preferred=[hff,hlm],w=1)],repeat_last=true,continue_on_fail=true)' --if-non-unit-cost --evaluator 'hlm1=lmcount(lm_reasonable_orders_hps(lm_rhw()),transform=adapt_costs(one),pref=true)' --evaluator 'hff1=ff(transform=adapt_costs(one))' --evaluator 'hlm2=lmcount(lm_reasonable_orders_hps(lm_rhw()),transform=adapt_costs(plusone),pref=true)' --evaluator 'hff2=ff(transform=adapt_costs(plusone))' --search 'iterated([lazy_greedy([hff1,hlm1],preferred=[hff1,hlm1],cost_type=one,reopen_closed=false),lazy_greedy([hff2,hlm2],preferred=[hff2,hlm2],reopen_closed=false),lazy_wastar([hff2,hlm2],preferred=[hff2,hlm2],w=5),lazy_wastar([hff2,hlm2],preferred=[hff2,hlm2],w=3),lazy_wastar([hff2,hlm2],preferred=[hff2,hlm2],w=2),lazy_wastar([hff2,hlm2],preferred=[hff2,hlm2],w=1)],repeat_last=true,continue_on_fail=true)' --always --internal-plan-file sas_plan < output.sas
[t=0.000151213s, 9872 KB] reading input...
[t=0.000483847s, 9872 KB] done reading input!
[t=0.00322581s, 10268 KB] Initializing landmark count heuristic...
[t=0.00329587s, 10268 KB] Generating landmark graph...
[t=0.00334029s, 10268 KB] Building a landmark graph with reasonable orders.
[t=0.00337935s, 10268 KB] Initializing Exploration...
[t=0.00342595s, 10268 KB] Generating landmarks using the RPG/SAS+ approach
[t=0.00374982s, 10268 KB] Removed 0 reasonable or obedient reasonable orders
[t=0.00379786s, 10268 KB] Landmarks generation time: 0.000455524s
[t=0.00383466s, 10268 KB] Discovered 28 landmarks, of which 0 are disjunctive and 0 are conjunctive.
[t=0.00386539s, 10268 KB] 20 edges
[t=0.00389524s, 10268 KB] approx. reasonable orders
[t=0.0039755s, 10268 KB] approx. obedient reasonable orders
[t=0.00401935s, 10268 KB] Removed 0 reasonable or obedient reasonable orders
[t=0.00405079s, 10268 KB] Landmarks generation time: 0.000745929s
[t=0.00408369s, 10268 KB] Discovered 28 landmarks, of which 0 are disjunctive and 0 are conjunctive.
[t=0.00411314s, 10268 KB] 20 edges
[t=0.00414166s, 10268 KB] Landmark graph generation time: 0.000872806s
[t=0.00417261s, 10268 KB] Landmark graph contains 28 landmarks, of which 0 are disjunctive and 0 are conjunctive.
[t=0.00420245s, 10268 KB] Landmark graph contains 20 orderings.
[t=0.00431002s, 10268 KB] Simplifying 16 unary operators... done! [16 unary operators]
[t=0.00437313s, 10268 KB] time to simplify: 9.6141e-05s
[t=0.00441398s, 10268 KB] Initializing additive heuristic...
[t=0.00444486s, 10268 KB] Initializing FF heuristic...
[t=0.00463502s, 10268 KB] Building successor generator...done!
[t=0.00475458s, 10268 KB] peak memory difference for successor generator creation: 0 KB
[t=0.00478412s, 10268 KB] time for successor generation creation: 1.6892e-05s
[t=0.00481724s, 10268 KB] Variables: 14
[t=0.00484715s, 10268 KB] FactPairs: 28
[t=0.00487583s, 10268 KB] Bytes per state: 4
[t=0.00546463s, 10532 KB] Building successor generator...done!
[t=0.00562776s, 10532 KB] peak memory difference for successor generator creation: 0 KB
[t=0.00565744s, 10532 KB] time for successor generation creation: 1.062e-06s
[t=0.00569082s, 10532 KB] Variables: 14
[t=0.0057212s, 10532 KB] FactPairs: 28
[t=0.00575042s, 10532 KB] Bytes per state: 4
[t=0.00580905s, 10532 KB] Starting search: lazy_greedy(list(hff, hlm), preferred = list(hff, hlm))
[t=0.0058513s, 10532 KB] Conducting lazy best first search, (real) bound = 2147483647
[t=0.0058918s, 10532 KB] 14 initial landmarks, 10 goal landmarks
[t=0.0059742s, 10532 KB] New best heuristic value for lmcount(lm_reasonable_orders_hps(lm_rhw), pref = true): 14
[t=0.0060157s, 10532 KB] New best heuristic value for ff: 12
[t=0.00604656s, 10532 KB] g=0, 1 evaluated, 0 expanded
[t=0.00609459s, 10532 KB] Initial heuristic value for lmcount(lm_reasonable_orders_hps(lm_rhw), pref = true): 14
[t=0.00612652s, 10532 KB] Initial heuristic value for ff: 12
[t=0.00618368s, 10532 KB] New best heuristic value for lmcount(lm_reasonable_orders_hps(lm_rhw), pref = true): 13
[t=0.00622044s, 10532 KB] New best heuristic value for ff: 11
[t=0.00624998s, 10532 KB] g=1, 2 evaluated, 1 expanded
[t=0.00633477s, 10532 KB] New best heuristic value for lmcount(lm_reasonable_orders_hps(lm_rhw), pref = true): 12
[t=0.00637905s, 10532 KB] New best heuristic value for ff: 10
[t=0.00640941s, 10532 KB] g=2, 3 evaluated, 2 expanded
[t=0.00647363s, 10532 KB] New best heuristic value for lmcount(lm_reasonable_orders_hps(lm_rhw), pref = true): 11
[t=0.00651002s, 10532 KB] New best heuristic value for ff: 9
[t=0.00653985s, 10532 KB] g=3, 4 evaluated, 3 expanded
[t=0.00660417s, 10532 KB] New best heuristic value for ff: 8
[t=0.00664099s, 10532 KB] g=4, 5 evaluated, 4 expanded
[t=0.00670392s, 10532 KB] New best heuristic value for ff: 7
[t=0.00674059s, 10532 KB] g=5, 6 evaluated, 5 expanded
[t=0.00680186s, 10532 KB] New best heuristic value for lmcount(lm_reasonable_orders_hps(lm_rhw), pref = true): 10
[t=0.00684708s, 10532 KB] g=4, 7 evaluated, 6 expanded
[t=0.00691057s, 10532 KB] New best heuristic value for lmcount(lm_reasonable_orders_hps(lm_rhw), pref = true): 7
[t=0.00694918s, 10532 KB] New best heuristic value for ff: 6
[t=0.00697897s, 10532 KB] g=6, 8 evaluated, 7 expanded
[t=0.00704025s, 10532 KB] New best heuristic value for lmcount(lm_reasonable_orders_hps(lm_rhw), pref = true): 6
[t=0.0070773s, 10532 KB] New best heuristic value for ff: 5
[t=0.00710708s, 10532 KB] g=7, 9 evaluated, 8 expanded
[t=0.00716414s, 10532 KB] New best heuristic value for lmcount(lm_reasonable_orders_hps(lm_rhw), pref = true): 5
[t=0.0072013s, 10532 KB] New best heuristic value for ff: 4
[t=0.00723107s, 10532 KB] g=8, 10 evaluated, 9 expanded
[t=0.00728563s, 10532 KB] New best heuristic value for lmcount(lm_reasonable_orders_hps(lm_rhw), pref = true): 4
[t=0.0073228s, 10532 KB] New best heuristic value for ff: 3
[t=0.00735208s, 10532 KB] g=9, 11 evaluated, 10 expanded
[t=0.00740399s, 10532 KB] New best heuristic value for lmcount(lm_reasonable_orders_hps(lm_rhw), pref = true): 3
[t=0.00743983s, 10532 KB] New best heuristic value for ff: 2
[t=0.00745985s, 10532 KB] g=10, 12 evaluated, 11 expanded
[t=0.00749445s, 10532 KB] New best heuristic value for ff: 1
[t=0.00751846s, 10532 KB] g=11, 13 evaluated, 12 expanded
[t=0.00754723s, 10532 KB] Solution found!
[t=0.00757076s, 10532 KB] Actual search time: 0.0016589s
install package64 (1)
install package308 (1)
install package281 (1)
install package168 (1)
install package74 (1)
install package16 (1)
install package149 (1)
install package120 (1)
install package12 (1)
install package102 (1)
install package101 (1)
install package212 (1)
[t=0.00768009s, 10532 KB] Plan length: 12 step(s).
[t=0.00770711s, 10532 KB] Plan cost: 12
[t=0.00772468s, 10532 KB] Expanded 13 state(s).
[t=0.00774115s, 10532 KB] Reopened 0 state(s).
[t=0.0077572s, 10532 KB] Evaluated 14 state(s).
[t=0.00777318s, 10532 KB] Evaluations: 28
[t=0.00778899s, 10532 KB] Generated 69 state(s).
[t=0.00780461s, 10532 KB] Dead ends: 0 state(s).
[t=0.00782042s, 10532 KB] Number of registered states: 14
[t=0.00783637s, 10532 KB] Int hash set load factor: 14/16 = 0.875
[t=0.00785325s, 10532 KB] Int hash set resizes: 4
[t=0.00786925s, 10532 KB] Best solution cost so far: 12
[t=0.00788506s, 10532 KB] Solution found - keep searching
[t=0.0079662s, 10532 KB] Building successor generator...done!
[t=0.00802006s, 10532 KB] peak memory difference for successor generator creation: 0 KB
[t=0.00803634s, 10532 KB] time for successor generation creation: 5.91e-07s
[t=0.00805491s, 10532 KB] Variables: 14
[t=0.00807115s, 10532 KB] FactPairs: 28
[t=0.0080872s, 10532 KB] Bytes per state: 4
[t=0.0081113s, 10532 KB] Starting search: lazy_wastar(list(hff, hlm), preferred = list(hff, hlm), w = 5)
[t=0.00813233s, 10532 KB] Conducting lazy best first search, (real) bound = 12
[t=0.0081534s, 10532 KB] 14 initial landmarks, 10 goal landmarks
[t=0.00818879s, 10532 KB] New best heuristic value for lmcount(lm_reasonable_orders_hps(lm_rhw), pref = true): 14
[t=0.00820884s, 10532 KB] New best heuristic value for ff: 12
[t=0.00822532s, 10532 KB] g=0, 1 evaluated, 0 expanded
[t=0.00825355s, 10532 KB] Initial heuristic value for lmcount(lm_reasonable_orders_hps(lm_rhw), pref = true): 14
[t=0.00827122s, 10532 KB] Initial heuristic value for ff: 12
[t=0.0083026s, 10532 KB] New best heuristic value for lmcount(lm_reasonable_orders_hps(lm_rhw), pref = true): 13
[t=0.00832278s, 10532 KB] New best heuristic value for ff: 11
[t=0.00833944s, 10532 KB] g=1, 2 evaluated, 1 expanded
[t=0.0083794s, 10532 KB] New best heuristic value for lmcount(lm_reasonable_orders_hps(lm_rhw), pref = true): 12
[t=0.00840038s, 10532 KB] New best heuristic value for ff: 10
[t=0.00841677s, 10532 KB] g=2, 3 evaluated, 2 expanded
[t=0.00845374s, 10532 KB] New best heuristic value for lmcount(lm_reasonable_orders_hps(lm_rhw), pref = true): 11
[t=0.00847428s, 10532 KB] New best heuristic value for ff: 9
[t=0.00849471s, 10532 KB] g=3, 4 evaluated, 3 expanded
[t=0.00853426s, 10532 KB] New best heuristic value for ff: 8
[t=0.00855543s, 10532 KB] g=4, 5 evaluated, 4 expanded
[t=0.00859295s, 10532 KB] New best heuristic value for ff: 7
[t=0.00861357s, 10532 KB] g=5, 6 evaluated, 5 expanded
[t=0.00864841s, 10532 KB] New best heuristic value for lmcount(lm_reasonable_orders_hps(lm_rhw), pref = true): 10
[t=0.0086687s, 10532 KB] g=4, 7 evaluated, 6 expanded
[t=0.0087037s, 10532 KB] New best heuristic value for lmcount(lm_reasonable_orders_hps(lm_rhw), pref = true): 7
[t=0.00872426s, 10532 KB] New best heuristic value for ff: 6
[t=0.00874076s, 10532 KB] g=6, 8 evaluated, 7 expanded
[t=0.00877548s, 10532 KB] New best heuristic value for lmcount(lm_reasonable_orders_hps(lm_rhw), pref = true): 6
[t=0.00879604s, 10532 KB] New best heuristic value for ff: 5
[t=0.00881232s, 10532 KB] g=7, 9 evaluated, 8 expanded
[t=0.00884471s, 10532 KB] New best heuristic value for lmcount(lm_reasonable_orders_hps(lm_rhw), pref = true): 5
[t=0.00886492s, 10532 KB] New best heuristic value for ff: 4
[t=0.00888142s, 10532 KB] g=8, 10 evaluated, 9 expanded
[t=0.00891265s, 10532 KB] New best heuristic value for lmcount(lm_reasonable_orders_hps(lm_rhw), pref = true): 4
[t=0.008933s, 10532 KB] New best heuristic value for ff: 3
[t=0.00894928s, 10532 KB] g=9, 11 evaluated, 10 expanded
[t=0.00897946s, 10532 KB] New best heuristic value for lmcount(lm_reasonable_orders_hps(lm_rhw), pref = true): 3
[t=0.00899971s, 10532 KB] New best heuristic value for ff: 2
[t=0.00901586s, 10532 KB] g=10, 12 evaluated, 11 expanded
[t=0.00904514s, 10532 KB] New best heuristic value for ff: 1
[t=0.00906525s, 10532 KB] g=11, 13 evaluated, 12 expanded
[t=0.047248s, 10664 KB] Completely explored state space -- no solution!
[t=0.0472749s, 10664 KB] Actual search time: 0.0391163s
[t=0.0472897s, 10664 KB] Expanded 2303 state(s).
[t=0.0473021s, 10664 KB] Reopened 0 state(s).
[t=0.047314s, 10664 KB] Evaluated 2303 state(s).
[t=0.0473256s, 10664 KB] Evaluations: 4606
[t=0.0473371s, 10664 KB] Generated 12288 state(s).
[t=0.0473485s, 10664 KB] Dead ends: 0 state(s).
[t=0.0473599s, 10664 KB] Number of registered states: 2303
[t=0.0473712s, 10664 KB] Int hash set load factor: 2303/4096 = 0.562256
[t=0.047383s, 10664 KB] Int hash set resizes: 12
[t=0.0473941s, 10664 KB] Best solution cost so far: 12
[t=0.0474052s, 10664 KB] No solution found - keep searching
[t=0.0474636s, 10664 KB] Building successor generator...done!
[t=0.0475023s, 10664 KB] peak memory difference for successor generator creation: 0 KB
[t=0.0475138s, 10664 KB] time for successor generation creation: 3.9e-07s
[t=0.0475267s, 10664 KB] Variables: 14
[t=0.0475383s, 10664 KB] FactPairs: 28
[t=0.0475496s, 10664 KB] Bytes per state: 4
[t=0.0475668s, 10664 KB] Starting search: lazy_wastar(list(hff, hlm), preferred = list(hff, hlm), w = 3)
[t=0.0475817s, 10664 KB] Conducting lazy best first search, (real) bound = 12
[t=0.047596s, 10664 KB] 14 initial landmarks, 10 goal landmarks
[t=0.0476211s, 10664 KB] New best heuristic value for lmcount(lm_reasonable_orders_hps(lm_rhw), pref = true): 14
[t=0.0476351s, 10664 KB] New best heuristic value for ff: 12
[t=0.0476465s, 10664 KB] g=0, 1 evaluated, 0 expanded
[t=0.0476664s, 10664 KB] Initial heuristic value for lmcount(lm_reasonable_orders_hps(lm_rhw), pref = true): 14
[t=0.0476789s, 10664 KB] Initial heuristic value for ff: 12
[t=0.0477005s, 10664 KB] New best heuristic value for lmcount(lm_reasonable_orders_hps(lm_rhw), pref = true): 13
[t=0.0477147s, 10664 KB] New best heuristic value for ff: 11
[t=0.0477264s, 10664 KB] g=1, 2 evaluated, 1 expanded
[t=0.0477538s, 10664 KB] New best heuristic value for lmcount(lm_reasonable_orders_hps(lm_rhw), pref = true): 12
[t=0.0477685s, 10664 KB] New best heuristic value for ff: 10
[t=0.0477801s, 10664 KB] g=2, 3 evaluated, 2 expanded
[t=0.0478062s, 10664 KB] New best heuristic value for lmcount(lm_reasonable_orders_hps(lm_rhw), pref = true): 11
[t=0.047821s, 10664 KB] New best heuristic value for ff: 9
[t=0.0478325s, 10664 KB] g=3, 4 evaluated, 3 expanded
[t=0.0478621s, 10664 KB] New best heuristic value for ff: 8
[t=0.0478774s, 10664 KB] g=4, 5 evaluated, 4 expanded
[t=0.0479035s, 10664 KB] New best heuristic value for ff: 7
[t=0.0479182s, 10664 KB] g=5, 6 evaluated, 5 expanded
[t=0.0479427s, 10664 KB] New best heuristic value for lmcount(lm_reasonable_orders_hps(lm_rhw), pref = true): 10
[t=0.0479572s, 10664 KB] g=4, 7 evaluated, 6 expanded
[t=0.0479816s, 10664 KB] New best heuristic value for lmcount(lm_reasonable_orders_hps(lm_rhw), pref = true): 7
[t=0.0479959s, 10664 KB] New best heuristic value for ff: 6
[t=0.0480074s, 10664 KB] g=6, 8 evaluated, 7 expanded
[t=0.0480318s, 10664 KB] New best heuristic value for lmcount(lm_reasonable_orders_hps(lm_rhw), pref = true): 6
[t=0.0480461s, 10664 KB] New best heuristic value for ff: 5
[t=0.0480576s, 10664 KB] g=7, 9 evaluated, 8 expanded
[t=0.0480806s, 10664 KB] New best heuristic value for lmcount(lm_reasonable_orders_hps(lm_rhw), pref = true): 5
[t=0.0480947s, 10664 KB] New best heuristic value for ff: 4
[t=0.0481062s, 10664 KB] g=8, 10 evaluated, 9 expanded
[t=0.0481282s, 10664 KB] New best heuristic value for lmcount(lm_reasonable_orders_hps(lm_rhw), pref = true): 4
[t=0.0481425s, 10664 KB] New best heuristic value for ff: 3
[t=0.048154s, 10664 KB] g=9, 11 evaluated, 10 expanded
[t=0.0481749s, 10664 KB] New best heuristic value for lmcount(lm_reasonable_orders_hps(lm_rhw), pref = true): 3
[t=0.048189s, 10664 KB] New best heuristic value for ff: 2
[t=0.0482004s, 10664 KB] g=10, 12 evaluated, 11 expanded
[t=0.048221s, 10664 KB] New best heuristic value for ff: 1
[t=0.048235s, 10664 KB] g=11, 13 evaluated, 12 expanded
[t=0.0822348s, 10664 KB] Completely explored state space -- no solution!
[t=0.0822633s, 10664 KB] Actual search time: 0.0346675s
[t=0.0822783s, 10664 KB] Expanded 2303 state(s).
[t=0.0822908s, 10664 KB] Reopened 0 state(s).
[t=0.0823028s, 10664 KB] Evaluated 2303 state(s).
[t=0.0823145s, 10664 KB] Evaluations: 4606
[t=0.0823261s, 10664 KB] Generated 12288 state(s).
[t=0.0823375s, 10664 KB] Dead ends: 0 state(s).
[t=0.0823488s, 10664 KB] Number of registered states: 2303
[t=0.0823602s, 10664 KB] Int hash set load factor: 2303/4096 = 0.562256
[t=0.0823722s, 10664 KB] Int hash set resizes: 12
[t=0.0823836s, 10664 KB] Best solution cost so far: 12
[t=0.0823949s, 10664 KB] No solution found - keep searching
[t=0.0824495s, 10664 KB] Building successor generator...done!
[t=0.082488s, 10664 KB] peak memory difference for successor generator creation: 0 KB
[t=0.0824995s, 10664 KB] time for successor generation creation: 4.01e-07s
[t=0.0825125s, 10664 KB] Variables: 14
[t=0.0825248s, 10664 KB] FactPairs: 28
[t=0.0825389s, 10664 KB] Bytes per state: 4
[t=0.0825562s, 10664 KB] Starting search: lazy_wastar(list(hff, hlm), preferred = list(hff, hlm), w = 2)
[t=0.082571s, 10664 KB] Conducting lazy best first search, (real) bound = 12
[t=0.0825857s, 10664 KB] 14 initial landmarks, 10 goal landmarks
[t=0.0826103s, 10664 KB] New best heuristic value for lmcount(lm_reasonable_orders_hps(lm_rhw), pref = true): 14
[t=0.0826245s, 10664 KB] New best heuristic value for ff: 12
[t=0.0826362s, 10664 KB] g=0, 1 evaluated, 0 expanded
[t=0.082656s, 10664 KB] Initial heuristic value for lmcount(lm_reasonable_orders_hps(lm_rhw), pref = true): 14
[t=0.0826685s, 10664 KB] Initial heuristic value for ff: 12
[t=0.0826906s, 10664 KB] New best heuristic value for lmcount(lm_reasonable_orders_hps(lm_rhw), pref = true): 13
[t=0.0827048s, 10664 KB] New best heuristic value for ff: 11
[t=0.0827164s, 10664 KB] g=1, 2 evaluated, 1 expanded
[t=0.0827445s, 10664 KB] New best heuristic value for lmcount(lm_reasonable_orders_hps(lm_rhw), pref = true): 12
[t=0.0827594s, 10664 KB] New best heuristic value for ff: 10
[t=0.082771s, 10664 KB] g=2, 3 evaluated, 2 expanded
[t=0.0827976s, 10664 KB] New best heuristic value for lmcount(lm_reasonable_orders_hps(lm_rhw), pref = true): 11
[t=0.0828119s, 10664 KB] New best heuristic value for ff: 9
[t=0.0828236s, 10664 KB] g=3, 4 evaluated, 3 expanded
[t=0.0828506s, 10664 KB] New best heuristic value for ff: 8
[t=0.0828683s, 10664 KB] g=4, 5 evaluated, 4 expanded
[t=0.0828963s, 10664 KB] New best heuristic value for ff: 7
[t=0.0829112s, 10664 KB] g=5, 6 evaluated, 5 expanded
[t=0.0829359s, 10664 KB] New best heuristic value for lmcount(lm_reasonable_orders_hps(lm_rhw), pref = true): 10
[t=0.0829503s, 10664 KB] g=4, 7 evaluated, 6 expanded
[t=0.0829752s, 10664 KB] New best heuristic value for lmcount(lm_reasonable_orders_hps(lm_rhw), pref = true): 7
[t=0.0829898s, 10664 KB] New best heuristic value for ff: 6
[t=0.0830014s, 10664 KB] g=6, 8 evaluated, 7 expanded
[t=0.0830267s, 10664 KB] New best heuristic value for lmcount(lm_reasonable_orders_hps(lm_rhw), pref = true): 6
[t=0.0830412s, 10664 KB] New best heuristic value for ff: 5
[t=0.0830527s, 10664 KB] g=7, 9 evaluated, 8 expanded
[t=0.0830762s, 10664 KB] New best heuristic value for lmcount(lm_reasonable_orders_hps(lm_rhw), pref = true): 5
[t=0.0830906s, 10664 KB] New best heuristic value for ff: 4
[t=0.0831022s, 10664 KB] g=8, 10 evaluated, 9 expanded
[t=0.0831247s, 10664 KB] New best heuristic value for lmcount(lm_reasonable_orders_hps(lm_rhw), pref = true): 4
[t=0.0831391s, 10664 KB] New best heuristic value for ff: 3
[t=0.0831505s, 10664 KB] g=9, 11 evaluated, 10 expanded
[t=0.0831718s, 10664 KB] New best heuristic value for lmcount(lm_reasonable_orders_hps(lm_rhw), pref = true): 3
[t=0.0831863s, 10664 KB] New best heuristic value for ff: 2
[t=0.0831976s, 10664 KB] g=10, 12 evaluated, 11 expanded
[t=0.0832186s, 10664 KB] New best heuristic value for ff: 1
[t=0.0832327s, 10664 KB] g=11, 13 evaluated, 12 expanded
[t=0.0846836s, 10664 KB] New best heuristic value for lmcount(lm_reasonable_orders_hps(lm_rhw), pref = true): 2
[t=0.0847027s, 10664 KB] g=10, 176 evaluated, 175 expanded
[t=0.117637s, 10664 KB] Completely explored state space -- no solution!
[t=0.117664s, 10664 KB] Actual search time: 0.0350781s
[t=0.117679s, 10664 KB] Expanded 2303 state(s).
[t=0.117691s, 10664 KB] Reopened 0 state(s).
[t=0.117703s, 10664 KB] Evaluated 2303 state(s).
[t=0.117714s, 10664 KB] Evaluations: 4606
[t=0.117726s, 10664 KB] Generated 12288 state(s).
[t=0.117737s, 10664 KB] Dead ends: 0 state(s).
[t=0.117748s, 10664 KB] Number of registered states: 2303
[t=0.11776s, 10664 KB] Int hash set load factor: 2303/4096 = 0.562256
[t=0.117771s, 10664 KB] Int hash set resizes: 12
[t=0.117782s, 10664 KB] Best solution cost so far: 12
[t=0.117794s, 10664 KB] No solution found - keep searching
[t=0.117847s, 10664 KB] Building successor generator...done!
[t=0.117885s, 10664 KB] peak memory difference for successor generator creation: 0 KB
[t=0.117896s, 10664 KB] time for successor generation creation: 3.71e-07s
[t=0.117914s, 10664 KB] Variables: 14
[t=0.117928s, 10664 KB] FactPairs: 28
[t=0.11794s, 10664 KB] Bytes per state: 4
[t=0.117957s, 10664 KB] Starting search: lazy_wastar(list(hff, hlm), preferred = list(hff, hlm), w = 1)
[t=0.117972s, 10664 KB] Conducting lazy best first search, (real) bound = 12
[t=0.117988s, 10664 KB] 14 initial landmarks, 10 goal landmarks
[t=0.118013s, 10664 KB] New best heuristic value for lmcount(lm_reasonable_orders_hps(lm_rhw), pref = true): 14
[t=0.118027s, 10664 KB] New best heuristic value for ff: 12
[t=0.118039s, 10664 KB] g=0, 1 evaluated, 0 expanded
[t=0.118058s, 10664 KB] Initial heuristic value for lmcount(lm_reasonable_orders_hps(lm_rhw), pref = true): 14
[t=0.11807s, 10664 KB] Initial heuristic value for ff: 12
[t=0.118092s, 10664 KB] New best heuristic value for lmcount(lm_reasonable_orders_hps(lm_rhw), pref = true): 13
[t=0.118107s, 10664 KB] New best heuristic value for ff: 11
[t=0.118118s, 10664 KB] g=1, 2 evaluated, 1 expanded
[t=0.118243s, 10664 KB] New best heuristic value for lmcount(lm_reasonable_orders_hps(lm_rhw), pref = true): 12
[t=0.11826s, 10664 KB] New best heuristic value for ff: 10
[t=0.118272s, 10664 KB] g=2, 12 evaluated, 11 expanded
[t=0.118561s, 10664 KB] New best heuristic value for lmcount(lm_reasonable_orders_hps(lm_rhw), pref = true): 11
[t=0.118578s, 10664 KB] g=2, 39 evaluated, 38 expanded
[t=0.118604s, 10664 KB] New best heuristic value for lmcount(lm_reasonable_orders_hps(lm_rhw), pref = true): 10
[t=0.118622s, 10664 KB] New best heuristic value for ff: 9
[t=0.118635s, 10664 KB] g=3, 40 evaluated, 39 expanded
[t=0.118777s, 10664 KB] New best heuristic value for lmcount(lm_reasonable_orders_hps(lm_rhw), pref = true): 9
[t=0.118793s, 10664 KB] New best heuristic value for ff: 8
[t=0.118805s, 10664 KB] g=4, 53 evaluated, 52 expanded
[t=0.119768s, 10664 KB] New best heuristic value for lmcount(lm_reasonable_orders_hps(lm_rhw), pref = true): 8
[t=0.119786s, 10664 KB] New best heuristic value for ff: 7
[t=0.119798s, 10664 KB] g=5, 152 evaluated, 151 expanded
[t=0.121933s, 10664 KB] New best heuristic value for lmcount(lm_reasonable_orders_hps(lm_rhw), pref = true): 7
[t=0.121952s, 10664 KB] New best heuristic value for ff: 6
[t=0.121965s, 10664 KB] g=6, 371 evaluated, 370 expanded
[t=0.125234s, 10664 KB] New best heuristic value for lmcount(lm_reasonable_orders_hps(lm_rhw), pref = true): 6
[t=0.125253s, 10664 KB] New best heuristic value for ff: 5
[t=0.125266s, 10664 KB] g=7, 708 evaluated, 707 expanded
[t=0.128515s, 10664 KB] New best heuristic value for lmcount(lm_reasonable_orders_hps(lm_rhw), pref = true): 5
[t=0.128536s, 10664 KB] New best heuristic value for ff: 4
[t=0.128548s, 10664 KB] g=8, 1049 evaluated, 1048 expanded
[t=0.130398s, 10664 KB] New best heuristic value for lmcount(lm_reasonable_orders_hps(lm_rhw), pref = true): 4
[t=0.13042s, 10664 KB] New best heuristic value for ff: 3
[t=0.130432s, 10664 KB] g=9, 1253 evaluated, 1252 expanded
[t=0.131163s, 10664 KB] New best heuristic value for lmcount(lm_reasonable_orders_hps(lm_rhw), pref = true): 3
[t=0.131181s, 10664 KB] New best heuristic value for ff: 2
[t=0.131193s, 10664 KB] g=10, 1339 evaluated, 1338 expanded
[t=0.131375s, 10664 KB] New best heuristic value for ff: 1
[t=0.131392s, 10664 KB] g=11, 1361 evaluated, 1360 expanded
[t=0.135409s, 10664 KB] New best heuristic value for lmcount(lm_reasonable_orders_hps(lm_rhw), pref = true): 2
[t=0.135429s, 10664 KB] g=10, 1667 evaluated, 1666 expanded
[t=0.135571s, 10664 KB] New best heuristic value for lmcount(lm_reasonable_orders_hps(lm_rhw), pref = true): 1
[t=0.135588s, 10664 KB] g=11, 1682 evaluated, 1681 expanded
[t=0.151415s, 10664 KB] Completely explored state space -- no solution!
[t=0.151439s, 10664 KB] Actual search time: 0.0334508s
[t=0.151454s, 10664 KB] Expanded 2303 state(s).
[t=0.151466s, 10664 KB] Reopened 0 state(s).
[t=0.151477s, 10664 KB] Evaluated 2303 state(s).
[t=0.151489s, 10664 KB] Evaluations: 4606
[t=0.1515s, 10664 KB] Generated 12288 state(s).
[t=0.151512s, 10664 KB] Dead ends: 0 state(s).
[t=0.151523s, 10664 KB] Number of registered states: 2303
[t=0.151534s, 10664 KB] Int hash set load factor: 2303/4096 = 0.562256
[t=0.151546s, 10664 KB] Int hash set resizes: 12
[t=0.151557s, 10664 KB] Best solution cost so far: 12
[t=0.151569s, 10664 KB] No solution found - keep searching
[t=0.151584s, 10664 KB] Actual search time: 0.146216s
[t=0.151598s, 10664 KB] Cumulative statistics:
[t=0.151598s, 10664 KB] Expanded 9225 state(s).
[t=0.151598s, 10664 KB] Reopened 0 state(s).
[t=0.151598s, 10664 KB] Evaluated 9226 state(s).
[t=0.151598s, 10664 KB] Evaluations: 18452
[t=0.151598s, 10664 KB] Generated 49221 state(s).
[t=0.151598s, 10664 KB] Dead ends: 0 state(s).
[t=0.151598s, 10664 KB] Search time: 0.146219s
[t=0.151598s, 10664 KB] Total time: 0.151598s
Solution found.
Peak memory: 10664 KB
Remove intermediate file output.sas
search exit code: 0

INFO     Planner time: 0.28s
