INFO     planner time limit: None
INFO     planner memory limit: None

INFO     Running translator.
INFO     translator stdin: None
INFO     translator time limit: None
INFO     translator memory limit: None
INFO     translator command line string: /usr/bin/python3 /home/prof/ribas/downward/builds/release/bin/translate/translate.py without_version/domain.pddl experiments/problems/problem2.pddl --sas-file output.sas
Parsing...
Parsing: [0.000s CPU, 0.006s wall-clock]
Normalizing task... [0.000s CPU, 0.000s wall-clock]
Instantiating...
Generating Datalog program... [0.010s CPU, 0.005s wall-clock]
Normalizing Datalog program...
Normalizing Datalog program: [0.000s CPU, 0.001s wall-clock]
Preparing model... [0.020s CPU, 0.018s wall-clock]
Generated 6 rules.
Computing model... [0.020s CPU, 0.022s wall-clock]
5511 relevant atoms
203 auxiliary atoms
5714 final queue length
5733 total queue pushes
Completing instantiation... [0.020s CPU, 0.016s wall-clock]
Instantiating: [0.070s CPU, 0.062s wall-clock]
Computing fact groups...
Finding invariants...
2 initial candidates
Finding invariants: [0.000s CPU, 0.000s wall-clock]
Checking invariant weight... [0.000s CPU, 0.000s wall-clock]
Instantiating groups... [0.000s CPU, 0.000s wall-clock]
Collecting mutex groups... [0.000s CPU, 0.000s wall-clock]
Choosing groups...
1168 uncovered facts
Choosing groups: [0.000s CPU, 0.000s wall-clock]
Building translation key... [0.000s CPU, 0.003s wall-clock]
Computing fact groups: [0.010s CPU, 0.010s wall-clock]
Building STRIPS to SAS dictionary... [0.000s CPU, 0.001s wall-clock]
Building dictionary for full mutex groups... [0.000s CPU, 0.001s wall-clock]
Building mutex information...
Building mutex information: [0.000s CPU, 0.000s wall-clock]
Translating task...
Processing axioms...
Simplifying axioms... [0.000s CPU, 0.001s wall-clock]
Translator axioms removed by simplifying: 0
Computing negative axioms... [0.000s CPU, 0.001s wall-clock]
Processing axioms: [0.010s CPU, 0.006s wall-clock]
Translating task: [0.030s CPU, 0.030s wall-clock]
0 effect conditions simplified
0 implied preconditions added
Detecting unreachable propositions...
0 operators removed
0 axioms removed
0 propositions removed
Detecting unreachable propositions: [0.020s CPU, 0.019s wall-clock]
Reordering and filtering variables...
10 of 1168 variables necessary.
0 of 0 mutex groups necessary.
10 of 984 operators necessary.
0 of 387 axiom rules necessary.
Reordering and filtering variables: [0.010s CPU, 0.004s wall-clock]
Translator variables: 10
Translator derived variables: 0
Translator facts: 20
Translator goal facts: 10
Translator mutex groups: 0
Translator total mutex groups size: 0
Translator operators: 10
Translator axioms: 0
Translator task size: 70
Translator peak memory: 37132 KB
Writing output... [0.000s CPU, 0.005s wall-clock]
Done! [0.140s CPU, 0.140s wall-clock]
translate exit code: 0

INFO     Running search (release).
INFO     search stdin: output.sas
INFO     search time limit: None
INFO     search memory limit: None
INFO     search command line string: /home/prof/ribas/downward/builds/release/bin/downward --if-unit-cost --evaluator 'hlm=lmcount(lm_reasonable_orders_hps(lm_rhw()),pref=true)' --evaluator 'hff=ff()' --search 'iterated([lazy_greedy([hff,hlm],preferred=[hff,hlm]),lazy_wastar([hff,hlm],preferred=[hff,hlm],w=5),lazy_wastar([hff,hlm],preferred=[hff,hlm],w=3),lazy_wastar([hff,hlm],preferred=[hff,hlm],w=2),lazy_wastar([hff,hlm],preferred=[hff,hlm],w=1)],repeat_last=true,continue_on_fail=true)' --if-non-unit-cost --evaluator 'hlm1=lmcount(lm_reasonable_orders_hps(lm_rhw()),transform=adapt_costs(one),pref=true)' --evaluator 'hff1=ff(transform=adapt_costs(one))' --evaluator 'hlm2=lmcount(lm_reasonable_orders_hps(lm_rhw()),transform=adapt_costs(plusone),pref=true)' --evaluator 'hff2=ff(transform=adapt_costs(plusone))' --search 'iterated([lazy_greedy([hff1,hlm1],preferred=[hff1,hlm1],cost_type=one,reopen_closed=false),lazy_greedy([hff2,hlm2],preferred=[hff2,hlm2],reopen_closed=false),lazy_wastar([hff2,hlm2],preferred=[hff2,hlm2],w=5),lazy_wastar([hff2,hlm2],preferred=[hff2,hlm2],w=3),lazy_wastar([hff2,hlm2],preferred=[hff2,hlm2],w=2),lazy_wastar([hff2,hlm2],preferred=[hff2,hlm2],w=1)],repeat_last=true,continue_on_fail=true)' --always --internal-plan-file sas_plan < output.sas
[t=0.000124294s, 9872 KB] reading input...
[t=0.000400873s, 9872 KB] done reading input!
[t=0.00315661s, 10268 KB] Initializing landmark count heuristic...
[t=0.0032298s, 10268 KB] Generating landmark graph...
[t=0.00327311s, 10268 KB] Building a landmark graph with reasonable orders.
[t=0.00331129s, 10268 KB] Initializing Exploration...
[t=0.00335225s, 10268 KB] Generating landmarks using the RPG/SAS+ approach
[t=0.00355632s, 10268 KB] Removed 0 reasonable or obedient reasonable orders
[t=0.00359859s, 10268 KB] Landmarks generation time: 0.000321843s
[t=0.00363424s, 10268 KB] Discovered 20 landmarks, of which 0 are disjunctive and 0 are conjunctive.
[t=0.00366444s, 10268 KB] 10 edges
[t=0.00369492s, 10268 KB] approx. reasonable orders
[t=0.00374749s, 10268 KB] approx. obedient reasonable orders
[t=0.00378812s, 10268 KB] Removed 0 reasonable or obedient reasonable orders
[t=0.00382s, 10268 KB] Landmarks generation time: 0.000579817s
[t=0.00385242s, 10268 KB] Discovered 20 landmarks, of which 0 are disjunctive and 0 are conjunctive.
[t=0.00388169s, 10268 KB] 10 edges
[t=0.00391067s, 10268 KB] Landmark graph generation time: 0.000708068s
[t=0.00394157s, 10268 KB] Landmark graph contains 20 landmarks, of which 0 are disjunctive and 0 are conjunctive.
[t=0.00397077s, 10268 KB] Landmark graph contains 10 orderings.
[t=0.00406748s, 10268 KB] Simplifying 10 unary operators... done! [10 unary operators]
[t=0.00412943s, 10268 KB] time to simplify: 9.5399e-05s
[t=0.00416906s, 10268 KB] Initializing additive heuristic...
[t=0.00419954s, 10268 KB] Initializing FF heuristic...
[t=0.00439074s, 10268 KB] Building successor generator...done!
[t=0.00450321s, 10268 KB] peak memory difference for successor generator creation: 0 KB
[t=0.00453322s, 10268 KB] time for successor generation creation: 1.3786e-05s
[t=0.00456642s, 10268 KB] Variables: 10
[t=0.00459566s, 10268 KB] FactPairs: 20
[t=0.00462426s, 10268 KB] Bytes per state: 4
[t=0.00521435s, 10532 KB] Building successor generator...done!
[t=0.00537813s, 10532 KB] peak memory difference for successor generator creation: 0 KB
[t=0.00540813s, 10532 KB] time for successor generation creation: 1.182e-06s
[t=0.00544116s, 10532 KB] Variables: 10
[t=0.00547116s, 10532 KB] FactPairs: 20
[t=0.00550033s, 10532 KB] Bytes per state: 4
[t=0.00555788s, 10532 KB] Starting search: lazy_greedy(list(hff, hlm), preferred = list(hff, hlm))
[t=0.00559949s, 10532 KB] Conducting lazy best first search, (real) bound = 2147483647
[t=0.00563956s, 10532 KB] 10 initial landmarks, 10 goal landmarks
[t=0.00571877s, 10532 KB] New best heuristic value for lmcount(lm_reasonable_orders_hps(lm_rhw), pref = true): 10
[t=0.00576185s, 10532 KB] New best heuristic value for ff: 10
[t=0.00579281s, 10532 KB] g=0, 1 evaluated, 0 expanded
[t=0.00583947s, 10532 KB] Initial heuristic value for lmcount(lm_reasonable_orders_hps(lm_rhw), pref = true): 10
[t=0.00587193s, 10532 KB] Initial heuristic value for ff: 10
[t=0.00592526s, 10532 KB] New best heuristic value for lmcount(lm_reasonable_orders_hps(lm_rhw), pref = true): 9
[t=0.00596052s, 10532 KB] New best heuristic value for ff: 9
[t=0.00598967s, 10532 KB] g=1, 2 evaluated, 1 expanded
[t=0.00605344s, 10532 KB] New best heuristic value for lmcount(lm_reasonable_orders_hps(lm_rhw), pref = true): 8
[t=0.00609017s, 10532 KB] New best heuristic value for ff: 8
[t=0.00611994s, 10532 KB] g=2, 3 evaluated, 2 expanded
[t=0.00617922s, 10532 KB] New best heuristic value for lmcount(lm_reasonable_orders_hps(lm_rhw), pref = true): 7
[t=0.00621591s, 10532 KB] New best heuristic value for ff: 7
[t=0.00624531s, 10532 KB] g=3, 4 evaluated, 3 expanded
[t=0.00630596s, 10532 KB] New best heuristic value for lmcount(lm_reasonable_orders_hps(lm_rhw), pref = true): 6
[t=0.00634294s, 10532 KB] New best heuristic value for ff: 6
[t=0.0063727s, 10532 KB] g=4, 5 evaluated, 4 expanded
[t=0.00643043s, 10532 KB] New best heuristic value for lmcount(lm_reasonable_orders_hps(lm_rhw), pref = true): 5
[t=0.00647426s, 10532 KB] New best heuristic value for ff: 5
[t=0.00650613s, 10532 KB] g=5, 6 evaluated, 5 expanded
[t=0.00656326s, 10532 KB] New best heuristic value for lmcount(lm_reasonable_orders_hps(lm_rhw), pref = true): 4
[t=0.00660016s, 10532 KB] New best heuristic value for ff: 4
[t=0.00663023s, 10532 KB] g=6, 7 evaluated, 6 expanded
[t=0.00668371s, 10532 KB] New best heuristic value for lmcount(lm_reasonable_orders_hps(lm_rhw), pref = true): 3
[t=0.00671975s, 10532 KB] New best heuristic value for ff: 3
[t=0.00674934s, 10532 KB] g=7, 8 evaluated, 7 expanded
[t=0.00680319s, 10532 KB] New best heuristic value for lmcount(lm_reasonable_orders_hps(lm_rhw), pref = true): 2
[t=0.00683942s, 10532 KB] New best heuristic value for ff: 2
[t=0.00689023s, 10532 KB] g=8, 9 evaluated, 8 expanded
[t=0.00694264s, 10532 KB] New best heuristic value for lmcount(lm_reasonable_orders_hps(lm_rhw), pref = true): 1
[t=0.00697911s, 10532 KB] New best heuristic value for ff: 1
[t=0.00700875s, 10532 KB] g=9, 10 evaluated, 9 expanded
[t=0.00704944s, 10532 KB] Solution found!
[t=0.00708469s, 10532 KB] Actual search time: 0.00143186s
install package945 (1)
install package934 (1)
install package704 (1)
install package617 (1)
install package5 (1)
install package422 (1)
install package412 (1)
install package368 (1)
install package301 (1)
install package163 (1)
[t=0.00720982s, 10532 KB] Plan length: 10 step(s).
[t=0.00723611s, 10532 KB] Plan cost: 10
[t=0.00725381s, 10532 KB] Expanded 10 state(s).
[t=0.00727021s, 10532 KB] Reopened 0 state(s).
[t=0.00728633s, 10532 KB] Evaluated 11 state(s).
[t=0.00730252s, 10532 KB] Evaluations: 22
[t=0.00731877s, 10532 KB] Generated 55 state(s).
[t=0.00733458s, 10532 KB] Dead ends: 0 state(s).
[t=0.00735046s, 10532 KB] Number of registered states: 11
[t=0.00736634s, 10532 KB] Int hash set load factor: 11/16 = 0.6875
[t=0.00738331s, 10532 KB] Int hash set resizes: 4
[t=0.00739921s, 10532 KB] Best solution cost so far: 10
[t=0.00741484s, 10532 KB] Solution found - keep searching
[t=0.00749638s, 10532 KB] Building successor generator...done!
[t=0.00755082s, 10532 KB] peak memory difference for successor generator creation: 0 KB
[t=0.00756711s, 10532 KB] time for successor generation creation: 5.81e-07s
[t=0.00758531s, 10532 KB] Variables: 10
[t=0.00760183s, 10532 KB] FactPairs: 20
[t=0.00761802s, 10532 KB] Bytes per state: 4
[t=0.00764206s, 10532 KB] Starting search: lazy_wastar(list(hff, hlm), preferred = list(hff, hlm), w = 5)
[t=0.00766334s, 10532 KB] Conducting lazy best first search, (real) bound = 10
[t=0.00768468s, 10532 KB] 10 initial landmarks, 10 goal landmarks
[t=0.00771776s, 10532 KB] New best heuristic value for lmcount(lm_reasonable_orders_hps(lm_rhw), pref = true): 10
[t=0.00774384s, 10532 KB] New best heuristic value for ff: 10
[t=0.00776183s, 10532 KB] g=0, 1 evaluated, 0 expanded
[t=0.00778999s, 10532 KB] Initial heuristic value for lmcount(lm_reasonable_orders_hps(lm_rhw), pref = true): 10
[t=0.00780844s, 10532 KB] Initial heuristic value for ff: 10
[t=0.00783769s, 10532 KB] New best heuristic value for lmcount(lm_reasonable_orders_hps(lm_rhw), pref = true): 9
[t=0.00785784s, 10532 KB] New best heuristic value for ff: 9
[t=0.00787424s, 10532 KB] g=1, 2 evaluated, 1 expanded
[t=0.00790951s, 10532 KB] New best heuristic value for lmcount(lm_reasonable_orders_hps(lm_rhw), pref = true): 8
[t=0.00792996s, 10532 KB] New best heuristic value for ff: 8
[t=0.00794642s, 10532 KB] g=2, 3 evaluated, 2 expanded
[t=0.00798045s, 10532 KB] New best heuristic value for lmcount(lm_reasonable_orders_hps(lm_rhw), pref = true): 7
[t=0.00800085s, 10532 KB] New best heuristic value for ff: 7
[t=0.00801783s, 10532 KB] g=3, 4 evaluated, 3 expanded
[t=0.00805234s, 10532 KB] New best heuristic value for lmcount(lm_reasonable_orders_hps(lm_rhw), pref = true): 6
[t=0.0080732s, 10532 KB] New best heuristic value for ff: 6
[t=0.00808984s, 10532 KB] g=4, 5 evaluated, 4 expanded
[t=0.00812284s, 10532 KB] New best heuristic value for lmcount(lm_reasonable_orders_hps(lm_rhw), pref = true): 5
[t=0.00814799s, 10532 KB] New best heuristic value for ff: 5
[t=0.00816579s, 10532 KB] g=5, 6 evaluated, 5 expanded
[t=0.00819877s, 10532 KB] New best heuristic value for lmcount(lm_reasonable_orders_hps(lm_rhw), pref = true): 4
[t=0.00821923s, 10532 KB] New best heuristic value for ff: 4
[t=0.00823542s, 10532 KB] g=6, 7 evaluated, 6 expanded
[t=0.00826634s, 10532 KB] New best heuristic value for lmcount(lm_reasonable_orders_hps(lm_rhw), pref = true): 3
[t=0.00828667s, 10532 KB] New best heuristic value for ff: 3
[t=0.00830303s, 10532 KB] g=7, 8 evaluated, 7 expanded
[t=0.00833403s, 10532 KB] New best heuristic value for lmcount(lm_reasonable_orders_hps(lm_rhw), pref = true): 2
[t=0.00835425s, 10532 KB] New best heuristic value for ff: 2
[t=0.00837053s, 10532 KB] g=8, 9 evaluated, 8 expanded
[t=0.00840632s, 10532 KB] New best heuristic value for lmcount(lm_reasonable_orders_hps(lm_rhw), pref = true): 1
[t=0.00842646s, 10532 KB] New best heuristic value for ff: 1
[t=0.00844302s, 10532 KB] g=9, 10 evaluated, 9 expanded
[t=0.0236411s, 10532 KB] Completely explored state space -- no solution!
[t=0.0236764s, 10532 KB] Actual search time: 0.0159919s
[t=0.0236972s, 10532 KB] Expanded 1023 state(s).
[t=0.0237142s, 10532 KB] Reopened 0 state(s).
[t=0.0237413s, 10532 KB] Evaluated 1023 state(s).
[t=0.0237628s, 10532 KB] Evaluations: 2046
[t=0.0237801s, 10532 KB] Generated 5120 state(s).
[t=0.0237968s, 10532 KB] Dead ends: 0 state(s).
[t=0.0238133s, 10532 KB] Number of registered states: 1023
[t=0.0238297s, 10532 KB] Int hash set load factor: 1023/2048 = 0.499512
[t=0.0238469s, 10532 KB] Int hash set resizes: 11
[t=0.023863s, 10532 KB] Best solution cost so far: 10
[t=0.0238791s, 10532 KB] No solution found - keep searching
[t=0.0239554s, 10532 KB] Building successor generator...done!
[t=0.0240105s, 10532 KB] peak memory difference for successor generator creation: 0 KB
[t=0.0240267s, 10532 KB] time for successor generation creation: 5.91e-07s
[t=0.0240453s, 10532 KB] Variables: 10
[t=0.024062s, 10532 KB] FactPairs: 20
[t=0.0240786s, 10532 KB] Bytes per state: 4
[t=0.024103s, 10532 KB] Starting search: lazy_wastar(list(hff, hlm), preferred = list(hff, hlm), w = 3)
[t=0.0241242s, 10532 KB] Conducting lazy best first search, (real) bound = 10
[t=0.024145s, 10532 KB] 10 initial landmarks, 10 goal landmarks
[t=0.0241778s, 10532 KB] New best heuristic value for lmcount(lm_reasonable_orders_hps(lm_rhw), pref = true): 10
[t=0.0241979s, 10532 KB] New best heuristic value for ff: 10
[t=0.0242146s, 10532 KB] g=0, 1 evaluated, 0 expanded
[t=0.0242421s, 10532 KB] Initial heuristic value for lmcount(lm_reasonable_orders_hps(lm_rhw), pref = true): 10
[t=0.0242601s, 10532 KB] Initial heuristic value for ff: 10
[t=0.0242883s, 10532 KB] New best heuristic value for lmcount(lm_reasonable_orders_hps(lm_rhw), pref = true): 9
[t=0.0243081s, 10532 KB] New best heuristic value for ff: 9
[t=0.0243245s, 10532 KB] g=1, 2 evaluated, 1 expanded
[t=0.0243604s, 10532 KB] New best heuristic value for lmcount(lm_reasonable_orders_hps(lm_rhw), pref = true): 8
[t=0.0243815s, 10532 KB] New best heuristic value for ff: 8
[t=0.0243991s, 10532 KB] g=2, 3 evaluated, 2 expanded
[t=0.0244346s, 10532 KB] New best heuristic value for lmcount(lm_reasonable_orders_hps(lm_rhw), pref = true): 7
[t=0.0244548s, 10532 KB] New best heuristic value for ff: 7
[t=0.0244716s, 10532 KB] g=3, 4 evaluated, 3 expanded
[t=0.0245069s, 10532 KB] New best heuristic value for lmcount(lm_reasonable_orders_hps(lm_rhw), pref = true): 6
[t=0.0245275s, 10532 KB] New best heuristic value for ff: 6
[t=0.0245441s, 10532 KB] g=4, 5 evaluated, 4 expanded
[t=0.0245776s, 10532 KB] New best heuristic value for lmcount(lm_reasonable_orders_hps(lm_rhw), pref = true): 5
[t=0.0245983s, 10532 KB] New best heuristic value for ff: 5
[t=0.0246148s, 10532 KB] g=5, 6 evaluated, 5 expanded
[t=0.0246463s, 10532 KB] New best heuristic value for lmcount(lm_reasonable_orders_hps(lm_rhw), pref = true): 4
[t=0.0246665s, 10532 KB] New best heuristic value for ff: 4
[t=0.024687s, 10532 KB] g=6, 7 evaluated, 6 expanded
[t=0.0247194s, 10532 KB] New best heuristic value for lmcount(lm_reasonable_orders_hps(lm_rhw), pref = true): 3
[t=0.02474s, 10532 KB] New best heuristic value for ff: 3
[t=0.0247567s, 10532 KB] g=7, 8 evaluated, 7 expanded
[t=0.0247877s, 10532 KB] New best heuristic value for lmcount(lm_reasonable_orders_hps(lm_rhw), pref = true): 2
[t=0.0248086s, 10532 KB] New best heuristic value for ff: 2
[t=0.024824s, 10532 KB] g=8, 9 evaluated, 8 expanded
[t=0.0248492s, 10532 KB] New best heuristic value for lmcount(lm_reasonable_orders_hps(lm_rhw), pref = true): 1
[t=0.024867s, 10532 KB] New best heuristic value for ff: 1
[t=0.0248816s, 10532 KB] g=9, 10 evaluated, 9 expanded
[t=0.0356569s, 10532 KB] Completely explored state space -- no solution!
[t=0.0356801s, 10532 KB] Actual search time: 0.0115297s
[t=0.0356945s, 10532 KB] Expanded 1023 state(s).
[t=0.0357067s, 10532 KB] Reopened 0 state(s).
[t=0.0357185s, 10532 KB] Evaluated 1023 state(s).
[t=0.0357377s, 10532 KB] Evaluations: 2046
[t=0.0357495s, 10532 KB] Generated 5120 state(s).
[t=0.035761s, 10532 KB] Dead ends: 0 state(s).
[t=0.0357726s, 10532 KB] Number of registered states: 1023
[t=0.0357847s, 10532 KB] Int hash set load factor: 1023/2048 = 0.499512
[t=0.0357966s, 10532 KB] Int hash set resizes: 11
[t=0.0358078s, 10532 KB] Best solution cost so far: 10
[t=0.0358192s, 10532 KB] No solution found - keep searching
[t=0.0358728s, 10532 KB] Building successor generator...done!
[t=0.0359115s, 10532 KB] peak memory difference for successor generator creation: 0 KB
[t=0.0359231s, 10532 KB] time for successor generation creation: 4.31e-07s
[t=0.0359362s, 10532 KB] Variables: 10
[t=0.0359479s, 10532 KB] FactPairs: 20
[t=0.0359593s, 10532 KB] Bytes per state: 4
[t=0.0359765s, 10532 KB] Starting search: lazy_wastar(list(hff, hlm), preferred = list(hff, hlm), w = 2)
[t=0.0359916s, 10532 KB] Conducting lazy best first search, (real) bound = 10
[t=0.0360065s, 10532 KB] 10 initial landmarks, 10 goal landmarks
[t=0.0360293s, 10532 KB] New best heuristic value for lmcount(lm_reasonable_orders_hps(lm_rhw), pref = true): 10
[t=0.0360434s, 10532 KB] New best heuristic value for ff: 10
[t=0.0360552s, 10532 KB] g=0, 1 evaluated, 0 expanded
[t=0.0360745s, 10532 KB] Initial heuristic value for lmcount(lm_reasonable_orders_hps(lm_rhw), pref = true): 10
[t=0.0360874s, 10532 KB] Initial heuristic value for ff: 10
[t=0.0361077s, 10532 KB] New best heuristic value for lmcount(lm_reasonable_orders_hps(lm_rhw), pref = true): 9
[t=0.0361223s, 10532 KB] New best heuristic value for ff: 9
[t=0.0361342s, 10532 KB] g=1, 2 evaluated, 1 expanded
[t=0.0361602s, 10532 KB] New best heuristic value for lmcount(lm_reasonable_orders_hps(lm_rhw), pref = true): 8
[t=0.036175s, 10532 KB] New best heuristic value for ff: 8
[t=0.0361868s, 10532 KB] g=2, 3 evaluated, 2 expanded
[t=0.0362117s, 10532 KB] New best heuristic value for lmcount(lm_reasonable_orders_hps(lm_rhw), pref = true): 7
[t=0.0362263s, 10532 KB] New best heuristic value for ff: 7
[t=0.036238s, 10532 KB] g=3, 4 evaluated, 3 expanded
[t=0.036263s, 10532 KB] New best heuristic value for lmcount(lm_reasonable_orders_hps(lm_rhw), pref = true): 6
[t=0.0362775s, 10532 KB] New best heuristic value for ff: 6
[t=0.0362892s, 10532 KB] g=4, 5 evaluated, 4 expanded
[t=0.0363131s, 10532 KB] New best heuristic value for lmcount(lm_reasonable_orders_hps(lm_rhw), pref = true): 5
[t=0.0363275s, 10532 KB] New best heuristic value for ff: 5
[t=0.036339s, 10532 KB] g=5, 6 evaluated, 5 expanded
[t=0.0363621s, 10532 KB] New best heuristic value for lmcount(lm_reasonable_orders_hps(lm_rhw), pref = true): 4
[t=0.0363768s, 10532 KB] New best heuristic value for ff: 4
[t=0.0363897s, 10532 KB] g=6, 7 evaluated, 6 expanded
[t=0.0364116s, 10532 KB] New best heuristic value for lmcount(lm_reasonable_orders_hps(lm_rhw), pref = true): 3
[t=0.0364258s, 10532 KB] New best heuristic value for ff: 3
[t=0.0364374s, 10532 KB] g=7, 8 evaluated, 7 expanded
[t=0.0364592s, 10532 KB] New best heuristic value for lmcount(lm_reasonable_orders_hps(lm_rhw), pref = true): 2
[t=0.0364765s, 10532 KB] New best heuristic value for ff: 2
[t=0.0364891s, 10532 KB] g=8, 9 evaluated, 8 expanded
[t=0.0365101s, 10532 KB] New best heuristic value for lmcount(lm_reasonable_orders_hps(lm_rhw), pref = true): 1
[t=0.0365247s, 10532 KB] New best heuristic value for ff: 1
[t=0.0365363s, 10532 KB] g=9, 10 evaluated, 9 expanded
[t=0.0474009s, 10532 KB] Completely explored state space -- no solution!
[t=0.0474241s, 10532 KB] Actual search time: 0.0114175s
[t=0.0474384s, 10532 KB] Expanded 1023 state(s).
[t=0.0474506s, 10532 KB] Reopened 0 state(s).
[t=0.0474624s, 10532 KB] Evaluated 1023 state(s).
[t=0.0474739s, 10532 KB] Evaluations: 2046
[t=0.0474854s, 10532 KB] Generated 5120 state(s).
[t=0.0474968s, 10532 KB] Dead ends: 0 state(s).
[t=0.0475081s, 10532 KB] Number of registered states: 1023
[t=0.0475194s, 10532 KB] Int hash set load factor: 1023/2048 = 0.499512
[t=0.0475312s, 10532 KB] Int hash set resizes: 11
[t=0.0475422s, 10532 KB] Best solution cost so far: 10
[t=0.0475533s, 10532 KB] No solution found - keep searching
[t=0.047605s, 10532 KB] Building successor generator...done!
[t=0.0476436s, 10532 KB] peak memory difference for successor generator creation: 0 KB
[t=0.0476551s, 10532 KB] time for successor generation creation: 4.11e-07s
[t=0.0476682s, 10532 KB] Variables: 10
[t=0.0476799s, 10532 KB] FactPairs: 20
[t=0.0476916s, 10532 KB] Bytes per state: 4
[t=0.0477087s, 10532 KB] Starting search: lazy_wastar(list(hff, hlm), preferred = list(hff, hlm), w = 1)
[t=0.047731s, 10532 KB] Conducting lazy best first search, (real) bound = 10
[t=0.0477475s, 10532 KB] 10 initial landmarks, 10 goal landmarks
[t=0.0477709s, 10532 KB] New best heuristic value for ff: 10
[t=0.0477855s, 10532 KB] New best heuristic value for lmcount(lm_reasonable_orders_hps(lm_rhw), pref = true): 10
[t=0.0477974s, 10532 KB] g=0, 1 evaluated, 0 expanded
[t=0.0478171s, 10532 KB] Initial heuristic value for ff: 10
[t=0.0478298s, 10532 KB] Initial heuristic value for lmcount(lm_reasonable_orders_hps(lm_rhw), pref = true): 10
[t=0.04785s, 10532 KB] New best heuristic value for ff: 9
[t=0.0478642s, 10532 KB] New best heuristic value for lmcount(lm_reasonable_orders_hps(lm_rhw), pref = true): 9
[t=0.0478759s, 10532 KB] g=1, 2 evaluated, 1 expanded
[t=0.0479937s, 10532 KB] New best heuristic value for ff: 8
[t=0.0480096s, 10532 KB] New best heuristic value for lmcount(lm_reasonable_orders_hps(lm_rhw), pref = true): 8
[t=0.0480217s, 10532 KB] g=2, 12 evaluated, 11 expanded
[t=0.0484637s, 10532 KB] New best heuristic value for ff: 7
[t=0.0484806s, 10532 KB] New best heuristic value for lmcount(lm_reasonable_orders_hps(lm_rhw), pref = true): 7
[t=0.0484928s, 10532 KB] g=3, 57 evaluated, 56 expanded
[t=0.0496251s, 10532 KB] New best heuristic value for ff: 6
[t=0.0496426s, 10532 KB] New best heuristic value for lmcount(lm_reasonable_orders_hps(lm_rhw), pref = true): 6
[t=0.0496551s, 10532 KB] g=4, 177 evaluated, 176 expanded
[t=0.0516003s, 10532 KB] New best heuristic value for ff: 5
[t=0.0516182s, 10532 KB] New best heuristic value for lmcount(lm_reasonable_orders_hps(lm_rhw), pref = true): 5
[t=0.0516307s, 10532 KB] g=5, 387 evaluated, 386 expanded
[t=0.0538843s, 10532 KB] New best heuristic value for ff: 4
[t=0.0539037s, 10532 KB] New best heuristic value for lmcount(lm_reasonable_orders_hps(lm_rhw), pref = true): 4
[t=0.0539166s, 10532 KB] g=6, 639 evaluated, 638 expanded
[t=0.0556606s, 10532 KB] New best heuristic value for ff: 3
[t=0.0556787s, 10532 KB] New best heuristic value for lmcount(lm_reasonable_orders_hps(lm_rhw), pref = true): 3
[t=0.0556913s, 10532 KB] g=7, 849 evaluated, 848 expanded
[t=0.0566652s, 10532 KB] New best heuristic value for ff: 2
[t=0.0566836s, 10532 KB] New best heuristic value for lmcount(lm_reasonable_orders_hps(lm_rhw), pref = true): 2
[t=0.056696s, 10532 KB] g=8, 969 evaluated, 968 expanded
[t=0.0571064s, 10532 KB] New best heuristic value for ff: 1
[t=0.0571234s, 10532 KB] New best heuristic value for lmcount(lm_reasonable_orders_hps(lm_rhw), pref = true): 1
[t=0.057136s, 10532 KB] g=9, 1014 evaluated, 1013 expanded
[t=0.0585485s, 10532 KB] Completely explored state space -- no solution!
[t=0.0585668s, 10532 KB] Actual search time: 0.010818s
[t=0.0585801s, 10532 KB] Expanded 1023 state(s).
[t=0.0585915s, 10532 KB] Reopened 0 state(s).
[t=0.058603s, 10532 KB] Evaluated 1023 state(s).
[t=0.0586144s, 10532 KB] Evaluations: 2046
[t=0.0586257s, 10532 KB] Generated 5120 state(s).
[t=0.0586371s, 10532 KB] Dead ends: 0 state(s).
[t=0.0586485s, 10532 KB] Number of registered states: 1023
[t=0.0586599s, 10532 KB] Int hash set load factor: 1023/2048 = 0.499512
[t=0.0586718s, 10532 KB] Int hash set resizes: 11
[t=0.058683s, 10532 KB] Best solution cost so far: 10
[t=0.0586943s, 10532 KB] No solution found - keep searching
[t=0.0587083s, 10532 KB] Actual search time: 0.0535934s
[t=0.0587224s, 10532 KB] Cumulative statistics:
[t=0.0587224s, 10532 KB] Expanded 4102 state(s).
[t=0.0587224s, 10532 KB] Reopened 0 state(s).
[t=0.0587224s, 10532 KB] Evaluated 4103 state(s).
[t=0.0587224s, 10532 KB] Evaluations: 8206
[t=0.0587224s, 10532 KB] Generated 20535 state(s).
[t=0.0587224s, 10532 KB] Dead ends: 0 state(s).
[t=0.0587224s, 10532 KB] Search time: 0.0535965s
[t=0.0587224s, 10532 KB] Total time: 0.0587224s
Solution found.
Peak memory: 10532 KB
Remove intermediate file output.sas
search exit code: 0

INFO     Planner time: 0.26s
