(install package83)
(install package82)
(install package43)
(install package52)
(install package60)
(install package24)
(install package47)
(install package16)
(install package137)
(install package115)
(install package49)
(install package122)
(install package121)
(install package107)
(install package69)
(install package27)
(install package102)
(install package1)
; cost = 18 (unit cost)
