(install package95)
(install package85)
(install package70)
(install package69)
(install package120)
(install package49)
(install package47)
(install package266)
(install package248)
(install package23)
(install package183)
(install package128)
(install package113)
(install package191)
(install package71)
(install package102)
(install package111)
(install package4)
(install package11)
(install package67)
(install package89)
(install package271)
; cost = 22 (unit cost)
