(install package945)
(install package934)
(install package704)
(install package617)
(install package5)
(install package422)
(install package412)
(install package368)
(install package301)
(install package163)
; cost = 10 (unit cost)
