(install package88)
(install package158)
(install package50)
(install package323)
(install package311)
(install package308)
(install package300)
(install package5)
(install package290)
(install package237)
(install package214)
(install package113)
(install package176)
(install package220)
(install package155)
(install package146)
(install package131)
(install package95)
; cost = 18 (unit cost)
