(install package64)
(install package308)
(install package281)
(install package168)
(install package74)
(install package16)
(install package149)
(install package120)
(install package12)
(install package102)
(install package101)
(install package212)
; cost = 12 (unit cost)
